results.vcd
$date
  Mon May 29 19:29:19 2017
$end
$version
  GHDL v0
$end
$timescale
  1 fs
$end
$var reg 1 ! l_clk_100 $end
$scope module fpga $end
$var reg 1 " i_clk $end
$var reg 1 # l_clk $end
$var reg 3 $ l_clk_cnt[2:0] $end
$scope module cpu $end
$var reg 1 % i_clk $end
$var reg 32 & l_instr_if[31:0] $end
$var reg 32 ' l_instr_id[31:0] $end
$var reg 32 ( l_instr_ex[31:0] $end
$var reg 32 ) l_instr_ma[31:0] $end
$var reg 32 * l_a[31:0] $end
$var reg 32 + l_b[31:0] $end
$var reg 32 , l_c[31:0] $end
$var reg 32 - l_r[31:0] $end
$var reg 32 . l_rd[31:0] $end
$var reg 5 / l_ra[4:0] $end
$var reg 1 0 l_rw $end
$scope module if_stage $end
$var reg 1 1 i_clk $end
$var reg 32 2 q_instr[31:0] $end
$var reg 32 3 l_pc[31:0] $end
$var reg 32 4 l_pc_4[31:0] $end
$scope module pc $end
$var reg 1 5 i_clk $end
$var reg 32 6 i_d[31:0] $end
$var reg 1 7 i_w $end
$var reg 32 8 q_d[31:0] $end
$var reg 32 9 l_content[31:0] $end
$upscope $end
$scope module instr_cache $end
$var reg 1 : i_clk $end
$var reg 32 ; i_adr[31:0] $end
$var reg 32 < q_instr[31:0] $end
$comment mem is not handled $end
$var reg 32 = l_data[31:0] $end
$var integer 32 > l_iadr $end
$var reg 1 ? l_f $end
$upscope $end
$upscope $end
$scope module id_stage $end
$var reg 1 @ i_clk $end
$var reg 1 A i_rw $end
$var reg 5 B i_ra[4:0] $end
$var reg 32 C i_rd[31:0] $end
$var reg 32 D i_instr[31:0] $end
$var reg 32 E q_instr[31:0] $end
$var reg 32 F q_a[31:0] $end
$var reg 32 G q_b[31:0] $end
$var reg 32 H l_instr[31:0] $end
$var reg 32 I l_type[31:0] $end
$var reg 6 J l_format[5:0] $end
$var reg 32 K l_rd1[31:0] $end
$var reg 32 L l_rd2[31:0] $end
$var reg 32 M l_imm[31:0] $end
$var reg 1 N l_immsel $end
$var reg 1 O l_opsel $end
$scope module ir $end
$var reg 1 P i_clk $end
$var reg 32 Q i_d[31:0] $end
$var reg 1 R i_w $end
$var reg 32 S q_d[31:0] $end
$var reg 32 T l_content[31:0] $end
$upscope $end
$scope module rf $end
$var reg 1 U i_clk $end
$var reg 1 V i_we $end
$var reg 5 W i_rs1[4:0] $end
$var reg 5 X i_rs2[4:0] $end
$var reg 5 Y i_wa[4:0] $end
$var reg 32 Z i_wd[31:0] $end
$var reg 32 [ q_rd1[31:0] $end
$var reg 32 \ q_rd2[31:0] $end
$var reg 32 ] l_write[31:0] $end
$var reg 32 ^ l_writes[31:0] $end
$var reg 32 _ l_r0[31:0] $end
$var reg 32 ` l_r1[31:0] $end
$var reg 32 a l_r2[31:0] $end
$var reg 32 b l_r3[31:0] $end
$var reg 32 c l_r4[31:0] $end
$var reg 32 d l_r5[31:0] $end
$var reg 32 e l_r6[31:0] $end
$var reg 32 f l_r7[31:0] $end
$var reg 32 g l_r8[31:0] $end
$var reg 32 h l_r9[31:0] $end
$var reg 32 i l_r10[31:0] $end
$var reg 32 j l_r11[31:0] $end
$var reg 32 k l_r12[31:0] $end
$var reg 32 l l_r13[31:0] $end
$var reg 32 m l_r14[31:0] $end
$var reg 32 n l_r15[31:0] $end
$var reg 32 o l_r16[31:0] $end
$var reg 32 p l_r17[31:0] $end
$var reg 32 q l_r18[31:0] $end
$var reg 32 r l_r19[31:0] $end
$var reg 32 s l_r20[31:0] $end
$var reg 32 t l_r21[31:0] $end
$var reg 32 u l_r22[31:0] $end
$var reg 32 v l_r23[31:0] $end
$var reg 32 w l_r24[31:0] $end
$var reg 32 x l_r25[31:0] $end
$var reg 32 y l_r26[31:0] $end
$var reg 32 z l_r27[31:0] $end
$var reg 32 { l_r28[31:0] $end
$var reg 32 | l_r29[31:0] $end
$var reg 32 } l_r30[31:0] $end
$var reg 32 !" l_r31[31:0] $end
$scope module r1 $end
$var reg 1 "" i_clk $end
$var reg 32 #" i_d[31:0] $end
$var reg 1 $" i_w $end
$var reg 32 %" q_d[31:0] $end
$var reg 32 &" l_content[31:0] $end
$upscope $end
$scope module r2 $end
$var reg 1 '" i_clk $end
$var reg 32 (" i_d[31:0] $end
$var reg 1 )" i_w $end
$var reg 32 *" q_d[31:0] $end
$var reg 32 +" l_content[31:0] $end
$upscope $end
$scope module r3 $end
$var reg 1 ," i_clk $end
$var reg 32 -" i_d[31:0] $end
$var reg 1 ." i_w $end
$var reg 32 /" q_d[31:0] $end
$var reg 32 0" l_content[31:0] $end
$upscope $end
$scope module r4 $end
$var reg 1 1" i_clk $end
$var reg 32 2" i_d[31:0] $end
$var reg 1 3" i_w $end
$var reg 32 4" q_d[31:0] $end
$var reg 32 5" l_content[31:0] $end
$upscope $end
$scope module r5 $end
$var reg 1 6" i_clk $end
$var reg 32 7" i_d[31:0] $end
$var reg 1 8" i_w $end
$var reg 32 9" q_d[31:0] $end
$var reg 32 :" l_content[31:0] $end
$upscope $end
$scope module r6 $end
$var reg 1 ;" i_clk $end
$var reg 32 <" i_d[31:0] $end
$var reg 1 =" i_w $end
$var reg 32 >" q_d[31:0] $end
$var reg 32 ?" l_content[31:0] $end
$upscope $end
$scope module r7 $end
$var reg 1 @" i_clk $end
$var reg 32 A" i_d[31:0] $end
$var reg 1 B" i_w $end
$var reg 32 C" q_d[31:0] $end
$var reg 32 D" l_content[31:0] $end
$upscope $end
$scope module r8 $end
$var reg 1 E" i_clk $end
$var reg 32 F" i_d[31:0] $end
$var reg 1 G" i_w $end
$var reg 32 H" q_d[31:0] $end
$var reg 32 I" l_content[31:0] $end
$upscope $end
$scope module r9 $end
$var reg 1 J" i_clk $end
$var reg 32 K" i_d[31:0] $end
$var reg 1 L" i_w $end
$var reg 32 M" q_d[31:0] $end
$var reg 32 N" l_content[31:0] $end
$upscope $end
$scope module r10 $end
$var reg 1 O" i_clk $end
$var reg 32 P" i_d[31:0] $end
$var reg 1 Q" i_w $end
$var reg 32 R" q_d[31:0] $end
$var reg 32 S" l_content[31:0] $end
$upscope $end
$scope module r11 $end
$var reg 1 T" i_clk $end
$var reg 32 U" i_d[31:0] $end
$var reg 1 V" i_w $end
$var reg 32 W" q_d[31:0] $end
$var reg 32 X" l_content[31:0] $end
$upscope $end
$scope module r12 $end
$var reg 1 Y" i_clk $end
$var reg 32 Z" i_d[31:0] $end
$var reg 1 [" i_w $end
$var reg 32 \" q_d[31:0] $end
$var reg 32 ]" l_content[31:0] $end
$upscope $end
$scope module r13 $end
$var reg 1 ^" i_clk $end
$var reg 32 _" i_d[31:0] $end
$var reg 1 `" i_w $end
$var reg 32 a" q_d[31:0] $end
$var reg 32 b" l_content[31:0] $end
$upscope $end
$scope module r14 $end
$var reg 1 c" i_clk $end
$var reg 32 d" i_d[31:0] $end
$var reg 1 e" i_w $end
$var reg 32 f" q_d[31:0] $end
$var reg 32 g" l_content[31:0] $end
$upscope $end
$scope module r15 $end
$var reg 1 h" i_clk $end
$var reg 32 i" i_d[31:0] $end
$var reg 1 j" i_w $end
$var reg 32 k" q_d[31:0] $end
$var reg 32 l" l_content[31:0] $end
$upscope $end
$scope module r16 $end
$var reg 1 m" i_clk $end
$var reg 32 n" i_d[31:0] $end
$var reg 1 o" i_w $end
$var reg 32 p" q_d[31:0] $end
$var reg 32 q" l_content[31:0] $end
$upscope $end
$scope module r17 $end
$var reg 1 r" i_clk $end
$var reg 32 s" i_d[31:0] $end
$var reg 1 t" i_w $end
$var reg 32 u" q_d[31:0] $end
$var reg 32 v" l_content[31:0] $end
$upscope $end
$scope module r18 $end
$var reg 1 w" i_clk $end
$var reg 32 x" i_d[31:0] $end
$var reg 1 y" i_w $end
$var reg 32 z" q_d[31:0] $end
$var reg 32 {" l_content[31:0] $end
$upscope $end
$scope module r19 $end
$var reg 1 |" i_clk $end
$var reg 32 }" i_d[31:0] $end
$var reg 1 !# i_w $end
$var reg 32 "# q_d[31:0] $end
$var reg 32 ## l_content[31:0] $end
$upscope $end
$scope module r20 $end
$var reg 1 $# i_clk $end
$var reg 32 %# i_d[31:0] $end
$var reg 1 &# i_w $end
$var reg 32 '# q_d[31:0] $end
$var reg 32 (# l_content[31:0] $end
$upscope $end
$scope module r21 $end
$var reg 1 )# i_clk $end
$var reg 32 *# i_d[31:0] $end
$var reg 1 +# i_w $end
$var reg 32 ,# q_d[31:0] $end
$var reg 32 -# l_content[31:0] $end
$upscope $end
$scope module r22 $end
$var reg 1 .# i_clk $end
$var reg 32 /# i_d[31:0] $end
$var reg 1 0# i_w $end
$var reg 32 1# q_d[31:0] $end
$var reg 32 2# l_content[31:0] $end
$upscope $end
$scope module r23 $end
$var reg 1 3# i_clk $end
$var reg 32 4# i_d[31:0] $end
$var reg 1 5# i_w $end
$var reg 32 6# q_d[31:0] $end
$var reg 32 7# l_content[31:0] $end
$upscope $end
$scope module r24 $end
$var reg 1 8# i_clk $end
$var reg 32 9# i_d[31:0] $end
$var reg 1 :# i_w $end
$var reg 32 ;# q_d[31:0] $end
$var reg 32 <# l_content[31:0] $end
$upscope $end
$scope module r25 $end
$var reg 1 =# i_clk $end
$var reg 32 ># i_d[31:0] $end
$var reg 1 ?# i_w $end
$var reg 32 @# q_d[31:0] $end
$var reg 32 A# l_content[31:0] $end
$upscope $end
$scope module r26 $end
$var reg 1 B# i_clk $end
$var reg 32 C# i_d[31:0] $end
$var reg 1 D# i_w $end
$var reg 32 E# q_d[31:0] $end
$var reg 32 F# l_content[31:0] $end
$upscope $end
$scope module r27 $end
$var reg 1 G# i_clk $end
$var reg 32 H# i_d[31:0] $end
$var reg 1 I# i_w $end
$var reg 32 J# q_d[31:0] $end
$var reg 32 K# l_content[31:0] $end
$upscope $end
$scope module r28 $end
$var reg 1 L# i_clk $end
$var reg 32 M# i_d[31:0] $end
$var reg 1 N# i_w $end
$var reg 32 O# q_d[31:0] $end
$var reg 32 P# l_content[31:0] $end
$upscope $end
$scope module r29 $end
$var reg 1 Q# i_clk $end
$var reg 32 R# i_d[31:0] $end
$var reg 1 S# i_w $end
$var reg 32 T# q_d[31:0] $end
$var reg 32 U# l_content[31:0] $end
$upscope $end
$scope module r30 $end
$var reg 1 V# i_clk $end
$var reg 32 W# i_d[31:0] $end
$var reg 1 X# i_w $end
$var reg 32 Y# q_d[31:0] $end
$var reg 32 Z# l_content[31:0] $end
$upscope $end
$scope module r31 $end
$var reg 1 [# i_clk $end
$var reg 32 \# i_d[31:0] $end
$var reg 1 ]# i_w $end
$var reg 32 ^# q_d[31:0] $end
$var reg 32 _# l_content[31:0] $end
$upscope $end
$upscope $end
$scope module type_decoder $end
$var reg 7 `# i_instr[6:0] $end
$var reg 32 a# q_type[31:0] $end
$var reg 6 b# q_format[5:0] $end
$var reg 32 c# l_type[31:0] $end
$upscope $end
$upscope $end
$scope module ex_stage $end
$var reg 1 d# i_clk $end
$var reg 32 e# i_a[31:0] $end
$var reg 32 f# i_b[31:0] $end
$var reg 32 g# i_instr[31:0] $end
$var reg 32 h# q_instr[31:0] $end
$var reg 32 i# q_c[31:0] $end
$var reg 32 j# l_a[31:0] $end
$var reg 32 k# l_b[31:0] $end
$var reg 32 l# l_type[31:0] $end
$var reg 32 m# l_instr[31:0] $end
$var reg 5 n# l_fc[4:0] $end
$var reg 3 o# l_cc[2:0] $end
$var reg 32 p# l_o[31:0] $end
$var reg 4 q# l_func[3:0] $end
$var reg 5 r# a_instr_func[4:0] $end
$var reg 5 s# a_alu_func[4:0] $end
$scope module ir $end
$var reg 1 t# i_clk $end
$var reg 32 u# i_d[31:0] $end
$var reg 1 v# i_w $end
$var reg 32 w# q_d[31:0] $end
$var reg 32 x# l_content[31:0] $end
$upscope $end
$scope module a $end
$var reg 1 y# i_clk $end
$var reg 32 z# i_d[31:0] $end
$var reg 1 {# i_w $end
$var reg 32 |# q_d[31:0] $end
$var reg 32 }# l_content[31:0] $end
$upscope $end
$scope module b $end
$var reg 1 !$ i_clk $end
$var reg 32 "$ i_d[31:0] $end
$var reg 1 #$ i_w $end
$var reg 32 $$ q_d[31:0] $end
$var reg 32 %$ l_content[31:0] $end
$upscope $end
$scope module al $end
$var reg 1 &$ i_clk $end
$var reg 32 '$ i_a[31:0] $end
$var reg 32 ($ i_b[31:0] $end
$var reg 5 )$ i_fc[4:0] $end
$var reg 3 *$ q_cc[2:0] $end
$var reg 32 +$ q_o[31:0] $end
$var reg 3 ,$ l_cc[2:0] $end
$var reg 32 -$ l_out[31:0] $end
$var reg 33 .$ l_alu[32:0] $end
$var reg 33 /$ l_shift[32:0] $end
$var reg 33 0$ u_a[32:0] $end
$var reg 33 1$ u_b[32:0] $end
$var reg 33 2$ s_a[32:0] $end
$var reg 33 3$ s_b[32:0] $end
$upscope $end
$scope module type_decoder $end
$var reg 7 4$ i_instr[6:0] $end
$var reg 32 5$ q_type[31:0] $end
$var reg 6 6$ q_format[5:0] $end
$var reg 32 7$ l_type[31:0] $end
$upscope $end
$upscope $end
$scope module ma_stage $end
$var reg 1 8$ i_clk $end
$var reg 32 9$ i_c[31:0] $end
$var reg 32 :$ i_instr[31:0] $end
$var reg 32 ;$ q_instr[31:0] $end
$var reg 32 <$ q_r[31:0] $end
$var reg 32 =$ l_instr[31:0] $end
$var reg 32 >$ l_c[31:0] $end
$var reg 1 ?$ l_wbsel $end
$scope module ir $end
$var reg 1 @$ i_clk $end
$var reg 32 A$ i_d[31:0] $end
$var reg 1 B$ i_w $end
$var reg 32 C$ q_d[31:0] $end
$var reg 32 D$ l_content[31:0] $end
$upscope $end
$scope module c $end
$var reg 1 E$ i_clk $end
$var reg 32 F$ i_d[31:0] $end
$var reg 1 G$ i_w $end
$var reg 32 H$ q_d[31:0] $end
$var reg 32 I$ l_content[31:0] $end
$upscope $end
$upscope $end
$scope module wb_stage $end
$var reg 1 J$ i_clk $end
$var reg 32 K$ i_r[31:0] $end
$var reg 32 L$ i_instr[31:0] $end
$var reg 32 M$ q_rd[31:0] $end
$var reg 1 N$ q_rw $end
$var reg 5 O$ q_ra[4:0] $end
$var reg 32 P$ l_instr[31:0] $end
$var reg 32 Q$ l_r[31:0] $end
$var reg 32 R$ l_type[31:0] $end
$scope module ir $end
$var reg 1 S$ i_clk $end
$var reg 32 T$ i_d[31:0] $end
$var reg 1 U$ i_w $end
$var reg 32 V$ q_d[31:0] $end
$var reg 32 W$ l_content[31:0] $end
$upscope $end
$scope module r $end
$var reg 1 X$ i_clk $end
$var reg 32 Y$ i_d[31:0] $end
$var reg 1 Z$ i_w $end
$var reg 32 [$ q_d[31:0] $end
$var reg 32 \$ l_content[31:0] $end
$upscope $end
$scope module type_decoder $end
$var reg 7 ]$ i_instr[6:0] $end
$var reg 32 ^$ q_type[31:0] $end
$var reg 6 _$ q_format[5:0] $end
$var reg 32 `$ l_type[31:0] $end
$upscope $end
$upscope $end
$upscope $end
$upscope $end
$enddefinitions $end
#0
1!
1"
0#
b000 $
0%
b00000000000000000000000000000000 &
b00000000000000000000000000000000 '
b00000000000000000000000000000000 (
b00000000000000000000000000000000 )
b00000000000000000000000000000000 *
b00000000000000000000000000000000 +
b00000000000000000000000000000000 ,
b00000000000000000000000000000000 -
b00000000000000000000000000000000 .
b00000 /
00
01
b00000000000000000000000000000000 2
b00000000000000000000000000000000 3
b00000000000000000000000000000100 4
05
b00000000000000000000000000000100 6
07
b00000000000000000000000000000000 8
b00000000000000000000000000000000 9
0:
b00000000000000000000000000000000 ;
b00000000000000000000000000000000 <
b00000000000000000000000000000000 =
b0 >
1?
0@
0A
b00000 B
b00000000000000000000000000000000 C
b00000000000000000000000000000000 D
b00000000000000000000000000000000 E
b00000000000000000000000000000000 F
b00000000000000000000000000000000 G
b00000000000000000000000000000000 H
b00000000000000000000000000000001 I
b000010 J
b00000000000000000000000000000000 K
b00000000000000000000000000000000 L
b00000000000000000000000000000000 M
0N
0O
0P
b00000000000000000000000000000000 Q
0R
b00000000000000000000000000000000 S
b00000000000000000000000000000000 T
0U
0V
b00000 W
b00000 X
b00000 Y
b00000000000000000000000000000000 Z
b00000000000000000000000000000000 [
b00000000000000000000000000000000 \
b00000000000000000000000000000000 ]
b00000000000000000000000000000001 ^
b00000000000000000000000000000000 _
b00000000000000000000000000000000 `
b00000000000000000000000000000000 a
b00000000000000000000000000000000 b
b00000000000000000000000000000000 c
b00000000000000000000000000000000 d
b00000000000000000000000000000000 e
b00000000000000000000000000000000 f
b00000000000000000000000000000000 g
b00000000000000000000000000000000 h
b00000000000000000000000000000000 i
b00000000000000000000000000000000 j
b00000000000000000000000000000000 k
b00000000000000000000000000000000 l
b00000000000000000000000000000000 m
b00000000000000000000000000000000 n
b00000000000000000000000000000000 o
b00000000000000000000000000000000 p
b00000000000000000000000000000000 q
b00000000000000000000000000000000 r
b00000000000000000000000000000000 s
b00000000000000000000000000000000 t
b00000000000000000000000000000000 u
b00000000000000000000000000000000 v
b00000000000000000000000000000000 w
b00000000000000000000000000000000 x
b00000000000000000000000000000000 y
b00000000000000000000000000000000 z
b00000000000000000000000000000000 {
b00000000000000000000000000000000 |
b00000000000000000000000000000000 }
b00000000000000000000000000000000 !"
0""
b00000000000000000000000000000000 #"
0$"
b00000000000000000000000000000000 %"
b00000000000000000000000000000000 &"
0'"
b00000000000000000000000000000000 ("
0)"
b00000000000000000000000000000000 *"
b00000000000000000000000000000000 +"
0,"
b00000000000000000000000000000000 -"
0."
b00000000000000000000000000000000 /"
b00000000000000000000000000000000 0"
01"
b00000000000000000000000000000000 2"
03"
b00000000000000000000000000000000 4"
b00000000000000000000000000000000 5"
06"
b00000000000000000000000000000000 7"
08"
b00000000000000000000000000000000 9"
b00000000000000000000000000000000 :"
0;"
b00000000000000000000000000000000 <"
0="
b00000000000000000000000000000000 >"
b00000000000000000000000000000000 ?"
0@"
b00000000000000000000000000000000 A"
0B"
b00000000000000000000000000000000 C"
b00000000000000000000000000000000 D"
0E"
b00000000000000000000000000000000 F"
0G"
b00000000000000000000000000000000 H"
b00000000000000000000000000000000 I"
0J"
b00000000000000000000000000000000 K"
0L"
b00000000000000000000000000000000 M"
b00000000000000000000000000000000 N"
0O"
b00000000000000000000000000000000 P"
0Q"
b00000000000000000000000000000000 R"
b00000000000000000000000000000000 S"
0T"
b00000000000000000000000000000000 U"
0V"
b00000000000000000000000000000000 W"
b00000000000000000000000000000000 X"
0Y"
b00000000000000000000000000000000 Z"
0["
b00000000000000000000000000000000 \"
b00000000000000000000000000000000 ]"
0^"
b00000000000000000000000000000000 _"
0`"
b00000000000000000000000000000000 a"
b00000000000000000000000000000000 b"
0c"
b00000000000000000000000000000000 d"
0e"
b00000000000000000000000000000000 f"
b00000000000000000000000000000000 g"
0h"
b00000000000000000000000000000000 i"
0j"
b00000000000000000000000000000000 k"
b00000000000000000000000000000000 l"
0m"
b00000000000000000000000000000000 n"
0o"
b00000000000000000000000000000000 p"
b00000000000000000000000000000000 q"
0r"
b00000000000000000000000000000000 s"
0t"
b00000000000000000000000000000000 u"
b00000000000000000000000000000000 v"
0w"
b00000000000000000000000000000000 x"
0y"
b00000000000000000000000000000000 z"
b00000000000000000000000000000000 {"
0|"
b00000000000000000000000000000000 }"
0!#
b00000000000000000000000000000000 "#
b00000000000000000000000000000000 ##
0$#
b00000000000000000000000000000000 %#
0&#
b00000000000000000000000000000000 '#
b00000000000000000000000000000000 (#
0)#
b00000000000000000000000000000000 *#
0+#
b00000000000000000000000000000000 ,#
b00000000000000000000000000000000 -#
0.#
b00000000000000000000000000000000 /#
00#
b00000000000000000000000000000000 1#
b00000000000000000000000000000000 2#
03#
b00000000000000000000000000000000 4#
05#
b00000000000000000000000000000000 6#
b00000000000000000000000000000000 7#
08#
b00000000000000000000000000000000 9#
0:#
b00000000000000000000000000000000 ;#
b00000000000000000000000000000000 <#
0=#
b00000000000000000000000000000000 >#
0?#
b00000000000000000000000000000000 @#
b00000000000000000000000000000000 A#
0B#
b00000000000000000000000000000000 C#
0D#
b00000000000000000000000000000000 E#
b00000000000000000000000000000000 F#
0G#
b00000000000000000000000000000000 H#
0I#
b00000000000000000000000000000000 J#
b00000000000000000000000000000000 K#
0L#
b00000000000000000000000000000000 M#
0N#
b00000000000000000000000000000000 O#
b00000000000000000000000000000000 P#
0Q#
b00000000000000000000000000000000 R#
0S#
b00000000000000000000000000000000 T#
b00000000000000000000000000000000 U#
0V#
b00000000000000000000000000000000 W#
0X#
b00000000000000000000000000000000 Y#
b00000000000000000000000000000000 Z#
0[#
b00000000000000000000000000000000 \#
0]#
b00000000000000000000000000000000 ^#
b00000000000000000000000000000000 _#
b0000000 `#
b00000000000000000000000000000001 a#
b000010 b#
b00000000000000000000000000000001 c#
0d#
b00000000000000000000000000000000 e#
b00000000000000000000000000000000 f#
b00000000000000000000000000000000 g#
b00000000000000000000000000000000 h#
b00000000000000000000000000000000 i#
b00000000000000000000000000000000 j#
b00000000000000000000000000000000 k#
b00000000000000000000000000000001 l#
b00000000000000000000000000000000 m#
b00000 n#
b001 o#
b00000000000000000000000000000000 p#
b0000 q#
b00000 r#
b00010 s#
0t#
b00000000000000000000000000000000 u#
0v#
b00000000000000000000000000000000 w#
b00000000000000000000000000000000 x#
0y#
b00000000000000000000000000000000 z#
0{#
b00000000000000000000000000000000 |#
b00000000000000000000000000000000 }#
0!$
b00000000000000000000000000000000 "$
0#$
b00000000000000000000000000000000 $$
b00000000000000000000000000000000 %$
0&$
b00000000000000000000000000000000 '$
b00000000000000000000000000000000 ($
b00000 )$
b001 *$
b00000000000000000000000000000000 +$
b001 ,$
b00000000000000000000000000000000 -$
b000000000000000000000000000000000 .$
b000000000000000000000000000000000 /$
b000000000000000000000000000000000 0$
b000000000000000000000000000000000 1$
b000000000000000000000000000000000 2$
b000000000000000000000000000000000 3$
b0000000 4$
b00000000000000000000000000000001 5$
b000010 6$
b00000000000000000000000000000001 7$
08$
b00000000000000000000000000000000 9$
b00000000000000000000000000000000 :$
b00000000000000000000000000000000 ;$
b00000000000000000000000000000000 <$
b00000000000000000000000000000000 =$
b00000000000000000000000000000000 >$
0?$
0@$
b00000000000000000000000000000000 A$
0B$
b00000000000000000000000000000000 C$
b00000000000000000000000000000000 D$
0E$
b00000000000000000000000000000000 F$
0G$
b00000000000000000000000000000000 H$
b00000000000000000000000000000000 I$
0J$
b00000000000000000000000000000000 K$
b00000000000000000000000000000000 L$
b00000000000000000000000000000000 M$
0N$
b00000 O$
b00000000000000000000000000000000 P$
b00000000000000000000000000000000 Q$
b00000000000000000000000000000001 R$
0S$
b00000000000000000000000000000000 T$
0U$
b00000000000000000000000000000000 V$
b00000000000000000000000000000000 W$
0X$
b00000000000000000000000000000000 Y$
0Z$
b00000000000000000000000000000000 [$
b00000000000000000000000000000000 \$
b0000000 ]$
b00000000000000000000000000000001 ^$
b000010 _$
b00000000000000000000000000000001 `$
#5000000
0!
0"
#10000000
1!
1"
b001 $
#15000000
0!
0"
#20000000
1!
1"
1#
b000 $
1%
b00000000010100010000000100010011 &
11
b00000000010100010000000100010011 2
b00000000000000000000000000000100 3
b00000000000000000000000000001000 4
15
b00000000000000000000000000001000 6
17
b00000000000000000000000000000100 8
b00000000000000000000000000000100 9
1:
b00000000000000000000000000000100 ;
b00000000010100010000000100010011 <
b00000000010100010000000100010011 =
b1 >
1@
b00000000010100010000000100010011 D
1P
b00000000010100010000000100010011 Q
1R
1U
1""
1'"
1,"
11"
16"
1;"
1@"
1E"
1J"
1O"
1T"
1Y"
1^"
1c"
1h"
1m"
1r"
1w"
1|"
1$#
1)#
1.#
13#
18#
1=#
1B#
1G#
1L#
1Q#
1V#
1[#
1d#
1t#
1v#
1y#
1{#
1!$
1#$
1&$
18$
1@$
1B$
1E$
1G$
1J$
1S$
1U$
1X$
1Z$
#25000000
0!
0"
#30000000
1!
1"
b001 $
#35000000
0!
0"
#40000000
1!
1"
0#
b000 $
0%
b00000000010100001000000010010011 &
01
b00000000010100001000000010010011 2
05
07
0:
b00000000010100001000000010010011 <
b00000000010100001000000010010011 =
0@
b00000000010100001000000010010011 D
0P
b00000000010100001000000010010011 Q
0R
0U
0""
0'"
0,"
01"
06"
0;"
0@"
0E"
0J"
0O"
0T"
0Y"
0^"
0c"
0h"
0m"
0r"
0w"
0|"
0$#
0)#
0.#
03#
08#
0=#
0B#
0G#
0L#
0Q#
0V#
0[#
0d#
0t#
0v#
0y#
0{#
0!$
0#$
0&$
08$
0@$
0B$
0E$
0G$
0J$
0S$
0U$
0X$
0Z$
#45000000
0!
0"
#50000000
1!
1"
b001 $
#55000000
0!
0"
#60000000
1!
1"
1#
b000 $
1%
b00000000010100001000000010010011 '
b00000000000000000000000000000101 +
11
b00000000000000000000000000001000 3
b00000000000000000000000000001100 4
15
b00000000000000000000000000001100 6
17
b00000000000000000000000000001000 8
b00000000000000000000000000001000 9
1:
b00000000000000000000000000001000 ;
b10 >
1@
b00000000010100001000000010010011 E
b00000000000000000000000000000101 G
b00000000010100001000000010010011 H
b00000000000000000000000000010000 I
b00000000000000000000000000000101 M
1N
1O
1P
1R
b00000000010100001000000010010011 S
b00000000010100001000000010010011 T
1U
b00001 W
b00101 X
1""
1'"
1,"
11"
16"
1;"
1@"
1E"
1J"
1O"
1T"
1Y"
1^"
1c"
1h"
1m"
1r"
1w"
1|"
1$#
1)#
1.#
13#
18#
1=#
1B#
1G#
1L#
1Q#
1V#
1[#
b0010011 `#
b00000000000000000000000000010000 a#
b00000000000000000000000000010000 c#
1d#
b00000000000000000000000000000101 f#
b00000000010100001000000010010011 g#
1t#
b00000000010100001000000010010011 u#
1v#
1y#
1{#
1!$
b00000000000000000000000000000101 "$
1#$
1&$
18$
1@$
1B$
1E$
1G$
1J$
1S$
1U$
1X$
1Z$
#65000000
0!
0"
#70000000
1!
1"
b001 $
#75000000
0!
0"
#80000000
1!
1"
0#
b000 $
0%
b00000000010100010000000100010011 &
01
b00000000010100010000000100010011 2
05
07
0:
b00000000010100010000000100010011 <
b00000000010100010000000100010011 =
0@
b00000000010100010000000100010011 D
0P
b00000000010100010000000100010011 Q
0R
0U
0""
0'"
0,"
01"
06"
0;"
0@"
0E"
0J"
0O"
0T"
0Y"
0^"
0c"
0h"
0m"
0r"
0w"
0|"
0$#
0)#
0.#
03#
08#
0=#
0B#
0G#
0L#
0Q#
0V#
0[#
0d#
0t#
0v#
0y#
0{#
0!$
0#$
0&$
08$
0@$
0B$
0E$
0G$
0J$
0S$
0U$
0X$
0Z$
#85000000
0!
0"
#90000000
1!
1"
b001 $
#95000000
0!
0"
#100000000
1!
1"
1#
b000 $
1%
b00000000010100010000000100010011 '
b00000000010100001000000010010011 (
11
b00000000000000000000000000001100 3
b00000000000000000000000000010000 4
15
b00000000000000000000000000010000 6
17
b00000000000000000000000000001100 8
b00000000000000000000000000001100 9
1:
b00000000000000000000000000001100 ;
b11 >
1@
b00000000010100010000000100010011 E
b00000000010100010000000100010011 H
1P
1R
b00000000010100010000000100010011 S
b00000000010100010000000100010011 T
1U
b00010 W
1""
1'"
1,"
11"
16"
1;"
1@"
1E"
1J"
1O"
1T"
1Y"
1^"
1c"
1h"
1m"
1r"
1w"
1|"
1$#
1)#
1.#
13#
18#
1=#
1B#
1G#
1L#
1Q#
1V#
1[#
1d#
b00000000010100010000000100010011 g#
b00000000010100001000000010010011 h#
b00000000000000000000000000000101 k#
b00000000000000000000000000010000 l#
b00000000010100001000000010010011 m#
b00010 n#
1t#
b00000000010100010000000100010011 u#
1v#
b00000000010100001000000010010011 w#
b00000000010100001000000010010011 x#
1y#
1{#
1!$
1#$
b00000000000000000000000000000101 $$
b00000000000000000000000000000101 %$
1&$
b00000000000000000000000000000101 ($
b00010 )$
b000000000000000000000000000000101 1$
b000000000000000000000000000000101 3$
b0010011 4$
b00000000000000000000000000010000 5$
b00000000000000000000000000010000 7$
18$
b00000000010100001000000010010011 :$
1@$
b00000000010100001000000010010011 A$
1B$
1E$
1G$
1J$
1S$
1U$
1X$
1Z$
#105000000
0!
0"
#110000000
1!
1"
b001 $
#115000000
0!
0"
#120000000
1!
1"
0#
b000 $
0%
b00000000010100001000000010010011 &
b00000000000000000000000000000101 ,
01
b00000000010100001000000010010011 2
05
07
0:
b00000000010100001000000010010011 <
b00000000010100001000000010010011 =
0@
b00000000010100001000000010010011 D
0P
b00000000010100001000000010010011 Q
0R
0U
0""
0'"
0,"
01"
06"
0;"
0@"
0E"
0J"
0O"
0T"
0Y"
0^"
0c"
0h"
0m"
0r"
0w"
0|"
0$#
0)#
0.#
03#
08#
0=#
0B#
0G#
0L#
0Q#
0V#
0[#
0d#
b00000000000000000000000000000101 i#
b000 o#
b00000000000000000000000000000101 p#
0t#
0v#
0y#
0{#
0!$
0#$
0&$
b000 *$
b00000000000000000000000000000101 +$
b000 ,$
b00000000000000000000000000000101 -$
b000000000000000000000000000000101 .$
08$
b00000000000000000000000000000101 9$
0@$
0B$
0E$
b00000000000000000000000000000101 F$
0G$
0J$
0S$
0U$
0X$
0Z$
#125000000
0!
0"
#130000000
1!
1"
b001 $
#135000000
0!
0"
