results.vcd
$date
  Fri Jun 02 19:22:31 2017
$end
$version
  GHDL v0
$end
$timescale
  1 fs
$end
$var reg 1 ! l_clk_100 $end
$scope module fpga $end
$var reg 1 " i_clk $end
$var reg 1 # l_clk $end
$var reg 3 $ l_clk_cnt[2:0] $end
$scope module cpu $end
$var reg 1 % i_clk $end
$var reg 32 & l_instr_if[31:0] $end
$var reg 32 ' id_cs[31:0] $end
$var reg 32 ( id_cs_buf[31:0] $end
$var reg 32 ) ex_cs[31:0] $end
$var reg 32 * ma_cs[31:0] $end
$var reg 32 + l_a[31:0] $end
$var reg 32 , l_b[31:0] $end
$var reg 32 - l_c[31:0] $end
$var reg 32 . l_r[31:0] $end
$var reg 32 / l_rd[31:0] $end
$var reg 5 0 l_ra[4:0] $end
$var reg 1 1 l_rw $end
$var reg 2 2 c_fw_a[1:0] $end
$var reg 2 3 c_fw_b[1:0] $end
$var reg 1 4 c_stall $end
$scope module if_stage $end
$var reg 1 5 i_clk $end
$var reg 1 6 i_stall $end
$var reg 32 7 q_instr[31:0] $end
$var reg 32 8 l_pc[31:0] $end
$var reg 32 9 l_pc_4[31:0] $end
$var reg 1 : l_wpc $end
$scope module pc $end
$var reg 1 ; i_clk $end
$var reg 32 < i_d[31:0] $end
$var reg 1 = i_w $end
$var reg 32 > q_d[31:0] $end
$var reg 32 ? l_content[31:0] $end
$upscope $end
$scope module instr_cache $end
$var reg 1 @ i_clk $end
$var reg 32 A i_adr[31:0] $end
$var reg 32 B q_instr[31:0] $end
$comment mem is not handled $end
$var reg 32 C l_data[31:0] $end
$var integer 32 D l_iadr $end
$var reg 1 E l_f $end
$upscope $end
$upscope $end
$scope module id_stage $end
$var reg 1 F i_clk $end
$var reg 1 G i_stall $end
$var reg 1 H i_rw $end
$var reg 5 I i_ra[4:0] $end
$var reg 32 J i_rd[31:0] $end
$var reg 32 K i_instr[31:0] $end
$var reg 32 L q_cs[31:0] $end
$var reg 32 M q_a[31:0] $end
$var reg 32 N q_b[31:0] $end
$var reg 1 O l_wir $end
$var reg 1 P l_kill $end
$var reg 32 Q l_instr[31:0] $end
$var reg 32 R l_type[31:0] $end
$var reg 6 S l_format[5:0] $end
$var reg 32 T l_rd1[31:0] $end
$var reg 32 U l_rd2[31:0] $end
$var reg 32 V l_imm[31:0] $end
$var reg 1 W l_immsel $end
$var reg 1 X l_opsel $end
$var reg 4 Y l_func[3:0] $end
$var reg 5 Z l_alu_func[4:0] $end
$var reg 5 [ l_instr_func[4:0] $end
$var reg 1 \ id_re1 $end
$var reg 1 ] id_re2 $end
$var reg 5 ^ ex_alufunc[4:0] $end
$var reg 1 _ ma_wbsel $end
$var reg 1 ` wb_rw $end
$var reg 5 a wb_ra[4:0] $end
$scope module ir $end
$var reg 1 b i_clk $end
$var reg 32 c i_d[31:0] $end
$var reg 1 d i_w $end
$var reg 32 e q_d[31:0] $end
$var reg 32 f l_content[31:0] $end
$upscope $end
$scope module rf $end
$var reg 1 g i_clk $end
$var reg 1 h i_we $end
$var reg 5 i i_rs1[4:0] $end
$var reg 5 j i_rs2[4:0] $end
$var reg 5 k i_wa[4:0] $end
$var reg 32 l i_wd[31:0] $end
$var reg 32 m q_rd1[31:0] $end
$var reg 32 n q_rd2[31:0] $end
$var reg 32 o l_write[31:0] $end
$var reg 32 p l_writes[31:0] $end
$var reg 32 q l_r0[31:0] $end
$var reg 32 r l_r1[31:0] $end
$var reg 32 s l_r2[31:0] $end
$var reg 32 t l_r3[31:0] $end
$var reg 32 u l_r4[31:0] $end
$var reg 32 v l_r5[31:0] $end
$var reg 32 w l_r6[31:0] $end
$var reg 32 x l_r7[31:0] $end
$var reg 32 y l_r8[31:0] $end
$var reg 32 z l_r9[31:0] $end
$var reg 32 { l_r10[31:0] $end
$var reg 32 | l_r11[31:0] $end
$var reg 32 } l_r12[31:0] $end
$var reg 32 !" l_r13[31:0] $end
$var reg 32 "" l_r14[31:0] $end
$var reg 32 #" l_r15[31:0] $end
$var reg 32 $" l_r16[31:0] $end
$var reg 32 %" l_r17[31:0] $end
$var reg 32 &" l_r18[31:0] $end
$var reg 32 '" l_r19[31:0] $end
$var reg 32 (" l_r20[31:0] $end
$var reg 32 )" l_r21[31:0] $end
$var reg 32 *" l_r22[31:0] $end
$var reg 32 +" l_r23[31:0] $end
$var reg 32 ," l_r24[31:0] $end
$var reg 32 -" l_r25[31:0] $end
$var reg 32 ." l_r26[31:0] $end
$var reg 32 /" l_r27[31:0] $end
$var reg 32 0" l_r28[31:0] $end
$var reg 32 1" l_r29[31:0] $end
$var reg 32 2" l_r30[31:0] $end
$var reg 32 3" l_r31[31:0] $end
$scope module r1 $end
$var reg 1 4" i_clk $end
$var reg 32 5" i_d[31:0] $end
$var reg 1 6" i_w $end
$var reg 32 7" q_d[31:0] $end
$var reg 32 8" l_content[31:0] $end
$upscope $end
$scope module r2 $end
$var reg 1 9" i_clk $end
$var reg 32 :" i_d[31:0] $end
$var reg 1 ;" i_w $end
$var reg 32 <" q_d[31:0] $end
$var reg 32 =" l_content[31:0] $end
$upscope $end
$scope module r3 $end
$var reg 1 >" i_clk $end
$var reg 32 ?" i_d[31:0] $end
$var reg 1 @" i_w $end
$var reg 32 A" q_d[31:0] $end
$var reg 32 B" l_content[31:0] $end
$upscope $end
$scope module r4 $end
$var reg 1 C" i_clk $end
$var reg 32 D" i_d[31:0] $end
$var reg 1 E" i_w $end
$var reg 32 F" q_d[31:0] $end
$var reg 32 G" l_content[31:0] $end
$upscope $end
$scope module r5 $end
$var reg 1 H" i_clk $end
$var reg 32 I" i_d[31:0] $end
$var reg 1 J" i_w $end
$var reg 32 K" q_d[31:0] $end
$var reg 32 L" l_content[31:0] $end
$upscope $end
$scope module r6 $end
$var reg 1 M" i_clk $end
$var reg 32 N" i_d[31:0] $end
$var reg 1 O" i_w $end
$var reg 32 P" q_d[31:0] $end
$var reg 32 Q" l_content[31:0] $end
$upscope $end
$scope module r7 $end
$var reg 1 R" i_clk $end
$var reg 32 S" i_d[31:0] $end
$var reg 1 T" i_w $end
$var reg 32 U" q_d[31:0] $end
$var reg 32 V" l_content[31:0] $end
$upscope $end
$scope module r8 $end
$var reg 1 W" i_clk $end
$var reg 32 X" i_d[31:0] $end
$var reg 1 Y" i_w $end
$var reg 32 Z" q_d[31:0] $end
$var reg 32 [" l_content[31:0] $end
$upscope $end
$scope module r9 $end
$var reg 1 \" i_clk $end
$var reg 32 ]" i_d[31:0] $end
$var reg 1 ^" i_w $end
$var reg 32 _" q_d[31:0] $end
$var reg 32 `" l_content[31:0] $end
$upscope $end
$scope module r10 $end
$var reg 1 a" i_clk $end
$var reg 32 b" i_d[31:0] $end
$var reg 1 c" i_w $end
$var reg 32 d" q_d[31:0] $end
$var reg 32 e" l_content[31:0] $end
$upscope $end
$scope module r11 $end
$var reg 1 f" i_clk $end
$var reg 32 g" i_d[31:0] $end
$var reg 1 h" i_w $end
$var reg 32 i" q_d[31:0] $end
$var reg 32 j" l_content[31:0] $end
$upscope $end
$scope module r12 $end
$var reg 1 k" i_clk $end
$var reg 32 l" i_d[31:0] $end
$var reg 1 m" i_w $end
$var reg 32 n" q_d[31:0] $end
$var reg 32 o" l_content[31:0] $end
$upscope $end
$scope module r13 $end
$var reg 1 p" i_clk $end
$var reg 32 q" i_d[31:0] $end
$var reg 1 r" i_w $end
$var reg 32 s" q_d[31:0] $end
$var reg 32 t" l_content[31:0] $end
$upscope $end
$scope module r14 $end
$var reg 1 u" i_clk $end
$var reg 32 v" i_d[31:0] $end
$var reg 1 w" i_w $end
$var reg 32 x" q_d[31:0] $end
$var reg 32 y" l_content[31:0] $end
$upscope $end
$scope module r15 $end
$var reg 1 z" i_clk $end
$var reg 32 {" i_d[31:0] $end
$var reg 1 |" i_w $end
$var reg 32 }" q_d[31:0] $end
$var reg 32 !# l_content[31:0] $end
$upscope $end
$scope module r16 $end
$var reg 1 "# i_clk $end
$var reg 32 ## i_d[31:0] $end
$var reg 1 $# i_w $end
$var reg 32 %# q_d[31:0] $end
$var reg 32 &# l_content[31:0] $end
$upscope $end
$scope module r17 $end
$var reg 1 '# i_clk $end
$var reg 32 (# i_d[31:0] $end
$var reg 1 )# i_w $end
$var reg 32 *# q_d[31:0] $end
$var reg 32 +# l_content[31:0] $end
$upscope $end
$scope module r18 $end
$var reg 1 ,# i_clk $end
$var reg 32 -# i_d[31:0] $end
$var reg 1 .# i_w $end
$var reg 32 /# q_d[31:0] $end
$var reg 32 0# l_content[31:0] $end
$upscope $end
$scope module r19 $end
$var reg 1 1# i_clk $end
$var reg 32 2# i_d[31:0] $end
$var reg 1 3# i_w $end
$var reg 32 4# q_d[31:0] $end
$var reg 32 5# l_content[31:0] $end
$upscope $end
$scope module r20 $end
$var reg 1 6# i_clk $end
$var reg 32 7# i_d[31:0] $end
$var reg 1 8# i_w $end
$var reg 32 9# q_d[31:0] $end
$var reg 32 :# l_content[31:0] $end
$upscope $end
$scope module r21 $end
$var reg 1 ;# i_clk $end
$var reg 32 <# i_d[31:0] $end
$var reg 1 =# i_w $end
$var reg 32 ># q_d[31:0] $end
$var reg 32 ?# l_content[31:0] $end
$upscope $end
$scope module r22 $end
$var reg 1 @# i_clk $end
$var reg 32 A# i_d[31:0] $end
$var reg 1 B# i_w $end
$var reg 32 C# q_d[31:0] $end
$var reg 32 D# l_content[31:0] $end
$upscope $end
$scope module r23 $end
$var reg 1 E# i_clk $end
$var reg 32 F# i_d[31:0] $end
$var reg 1 G# i_w $end
$var reg 32 H# q_d[31:0] $end
$var reg 32 I# l_content[31:0] $end
$upscope $end
$scope module r24 $end
$var reg 1 J# i_clk $end
$var reg 32 K# i_d[31:0] $end
$var reg 1 L# i_w $end
$var reg 32 M# q_d[31:0] $end
$var reg 32 N# l_content[31:0] $end
$upscope $end
$scope module r25 $end
$var reg 1 O# i_clk $end
$var reg 32 P# i_d[31:0] $end
$var reg 1 Q# i_w $end
$var reg 32 R# q_d[31:0] $end
$var reg 32 S# l_content[31:0] $end
$upscope $end
$scope module r26 $end
$var reg 1 T# i_clk $end
$var reg 32 U# i_d[31:0] $end
$var reg 1 V# i_w $end
$var reg 32 W# q_d[31:0] $end
$var reg 32 X# l_content[31:0] $end
$upscope $end
$scope module r27 $end
$var reg 1 Y# i_clk $end
$var reg 32 Z# i_d[31:0] $end
$var reg 1 [# i_w $end
$var reg 32 \# q_d[31:0] $end
$var reg 32 ]# l_content[31:0] $end
$upscope $end
$scope module r28 $end
$var reg 1 ^# i_clk $end
$var reg 32 _# i_d[31:0] $end
$var reg 1 `# i_w $end
$var reg 32 a# q_d[31:0] $end
$var reg 32 b# l_content[31:0] $end
$upscope $end
$scope module r29 $end
$var reg 1 c# i_clk $end
$var reg 32 d# i_d[31:0] $end
$var reg 1 e# i_w $end
$var reg 32 f# q_d[31:0] $end
$var reg 32 g# l_content[31:0] $end
$upscope $end
$scope module r30 $end
$var reg 1 h# i_clk $end
$var reg 32 i# i_d[31:0] $end
$var reg 1 j# i_w $end
$var reg 32 k# q_d[31:0] $end
$var reg 32 l# l_content[31:0] $end
$upscope $end
$scope module r31 $end
$var reg 1 m# i_clk $end
$var reg 32 n# i_d[31:0] $end
$var reg 1 o# i_w $end
$var reg 32 p# q_d[31:0] $end
$var reg 32 q# l_content[31:0] $end
$upscope $end
$upscope $end
$scope module type_decoder $end
$var reg 7 r# i_instr[6:0] $end
$var reg 32 s# q_type[31:0] $end
$var reg 6 t# q_format[5:0] $end
$var reg 32 u# l_type[31:0] $end
$upscope $end
$upscope $end
$scope module ex_stage $end
$var reg 1 v# i_clk $end
$var reg 2 w# i_fw_a[1:0] $end
$var reg 2 x# i_fw_b[1:0] $end
$var reg 32 y# i_a[31:0] $end
$var reg 32 z# i_b[31:0] $end
$var reg 32 {# i_fw_m[31:0] $end
$var reg 32 |# i_cs[31:0] $end
$var reg 32 }# q_cs[31:0] $end
$var reg 32 !$ q_c[31:0] $end
$var reg 32 "$ l_ia[31:0] $end
$var reg 32 #$ l_ib[31:0] $end
$var reg 32 $$ l_a[31:0] $end
$var reg 32 %$ l_b[31:0] $end
$var reg 1 &$ b_bt $end
$var reg 32 '$ l_cs[31:0] $end
$var reg 3 ($ l_cc[2:0] $end
$var reg 32 )$ l_o[31:0] $end
$scope module ir $end
$var reg 1 *$ i_clk $end
$var reg 32 +$ i_d[31:0] $end
$var reg 1 ,$ i_w $end
$var reg 32 -$ q_d[31:0] $end
$var reg 32 .$ l_content[31:0] $end
$upscope $end
$scope module a $end
$var reg 1 /$ i_clk $end
$var reg 32 0$ i_d[31:0] $end
$var reg 1 1$ i_w $end
$var reg 32 2$ q_d[31:0] $end
$var reg 32 3$ l_content[31:0] $end
$upscope $end
$scope module b $end
$var reg 1 4$ i_clk $end
$var reg 32 5$ i_d[31:0] $end
$var reg 1 6$ i_w $end
$var reg 32 7$ q_d[31:0] $end
$var reg 32 8$ l_content[31:0] $end
$upscope $end
$scope module al $end
$var reg 1 9$ i_clk $end
$var reg 32 :$ i_a[31:0] $end
$var reg 32 ;$ i_b[31:0] $end
$var reg 5 <$ i_fc[4:0] $end
$var reg 3 =$ q_cc[2:0] $end
$var reg 32 >$ q_o[31:0] $end
$var reg 3 ?$ l_cc[2:0] $end
$var reg 32 @$ l_out[31:0] $end
$var reg 33 A$ l_alu[32:0] $end
$var reg 33 B$ l_shift[32:0] $end
$var reg 33 C$ u_a[32:0] $end
$var reg 33 D$ u_b[32:0] $end
$var reg 33 E$ s_a[32:0] $end
$var reg 33 F$ s_b[32:0] $end
$upscope $end
$upscope $end
$scope module ma_stage $end
$var reg 1 G$ i_clk $end
$var reg 32 H$ i_c[31:0] $end
$var reg 32 I$ i_cs[31:0] $end
$var reg 32 J$ q_cs[31:0] $end
$var reg 32 K$ q_r[31:0] $end
$var reg 32 L$ l_cs[31:0] $end
$var reg 32 M$ l_c[31:0] $end
$scope module ir $end
$var reg 1 N$ i_clk $end
$var reg 32 O$ i_d[31:0] $end
$var reg 1 P$ i_w $end
$var reg 32 Q$ q_d[31:0] $end
$var reg 32 R$ l_content[31:0] $end
$upscope $end
$scope module c $end
$var reg 1 S$ i_clk $end
$var reg 32 T$ i_d[31:0] $end
$var reg 1 U$ i_w $end
$var reg 32 V$ q_d[31:0] $end
$var reg 32 W$ l_content[31:0] $end
$upscope $end
$upscope $end
$scope module wb_stage $end
$var reg 1 X$ i_clk $end
$var reg 32 Y$ i_r[31:0] $end
$var reg 32 Z$ i_cs[31:0] $end
$var reg 32 [$ q_rd[31:0] $end
$var reg 1 \$ q_rw $end
$var reg 5 ]$ q_ra[4:0] $end
$var reg 32 ^$ l_cs[31:0] $end
$var reg 32 _$ l_r[31:0] $end
$scope module ir $end
$var reg 1 `$ i_clk $end
$var reg 32 a$ i_d[31:0] $end
$var reg 1 b$ i_w $end
$var reg 32 c$ q_d[31:0] $end
$var reg 32 d$ l_content[31:0] $end
$upscope $end
$scope module r $end
$var reg 1 e$ i_clk $end
$var reg 32 f$ i_d[31:0] $end
$var reg 1 g$ i_w $end
$var reg 32 h$ q_d[31:0] $end
$var reg 32 i$ l_content[31:0] $end
$upscope $end
$upscope $end
$upscope $end
$upscope $end
$enddefinitions $end
#0
1!
1"
0#
b000 $
0%
b00000000000000000000000000000000 &
b00000000000000000000000000000000 '
b00000000000000000000000000000000 (
b00000000000000000000000000000000 )
b00000000000000000000000000000000 *
b00000000000000000000000000000000 +
b00000000000000000000000000000000 ,
b00000000000000000000000000000000 -
b00000000000000000000000000000000 .
b00000000000000000000000000000000 /
b00000 0
01
b00 2
b00 3
04
05
06
b00000000000000000000000000000000 7
b00000000000000000000000000000000 8
b00000000000000000000000000000100 9
1:
0;
b00000000000000000000000000000100 <
1=
b00000000000000000000000000000000 >
b00000000000000000000000000000000 ?
0@
b00000000000000000000000000000000 A
b00000000000000000000000000000000 B
b00000000000000000000000000000000 C
b0 D
1E
0F
0G
0H
b00000 I
b00000000000000000000000000000000 J
b00000000000000000000000000000000 K
b00000000000000000000000000000000 L
b00000000000000000000000000000000 M
b00000000000000000000000000000000 N
1O
0P
b00000000000000000000000000000000 Q
b00000000000000000000000000000001 R
b000010 S
b00000000000000000000000000000000 T
b00000000000000000000000000000000 U
b00000000000000000000000000000000 V
0W
0X
b0000 Y
b00010 Z
b00000 [
0\
0]
b00000 ^
0_
0`
b00000 a
0b
b00000000000000000000000000000000 c
1d
b00000000000000000000000000000000 e
b00000000000000000000000000000000 f
0g
0h
b00000 i
b00000 j
b00000 k
b00000000000000000000000000000000 l
b00000000000000000000000000000000 m
b00000000000000000000000000000000 n
b00000000000000000000000000000000 o
b00000000000000000000000000000001 p
b00000000000000000000000000000000 q
b00000000000000000000000000000000 r
b00000000000000000000000000000000 s
b00000000000000000000000000000000 t
b00000000000000000000000000000000 u
b00000000000000000000000000000000 v
b00000000000000000000000000000000 w
b00000000000000000000000000000000 x
b00000000000000000000000000000000 y
b00000000000000000000000000000000 z
b00000000000000000000000000000000 {
b00000000000000000000000000000000 |
b00000000000000000000000000000000 }
b00000000000000000000000000000000 !"
b00000000000000000000000000000000 ""
b00000000000000000000000000000000 #"
b00000000000000000000000000000000 $"
b00000000000000000000000000000000 %"
b00000000000000000000000000000000 &"
b00000000000000000000000000000000 '"
b00000000000000000000000000000000 ("
b00000000000000000000000000000000 )"
b00000000000000000000000000000000 *"
b00000000000000000000000000000000 +"
b00000000000000000000000000000000 ,"
b00000000000000000000000000000000 -"
b00000000000000000000000000000000 ."
b00000000000000000000000000000000 /"
b00000000000000000000000000000000 0"
b00000000000000000000000000000000 1"
b00000000000000000000000000000000 2"
b00000000000000000000000000000000 3"
04"
b00000000000000000000000000000000 5"
06"
b00000000000000000000000000000000 7"
b00000000000000000000000000000000 8"
09"
b00000000000000000000000000000000 :"
0;"
b00000000000000000000000000000000 <"
b00000000000000000000000000000000 ="
0>"
b00000000000000000000000000000000 ?"
0@"
b00000000000000000000000000000000 A"
b00000000000000000000000000000000 B"
0C"
b00000000000000000000000000000000 D"
0E"
b00000000000000000000000000000000 F"
b00000000000000000000000000000000 G"
0H"
b00000000000000000000000000000000 I"
0J"
b00000000000000000000000000000000 K"
b00000000000000000000000000000000 L"
0M"
b00000000000000000000000000000000 N"
0O"
b00000000000000000000000000000000 P"
b00000000000000000000000000000000 Q"
0R"
b00000000000000000000000000000000 S"
0T"
b00000000000000000000000000000000 U"
b00000000000000000000000000000000 V"
0W"
b00000000000000000000000000000000 X"
0Y"
b00000000000000000000000000000000 Z"
b00000000000000000000000000000000 ["
0\"
b00000000000000000000000000000000 ]"
0^"
b00000000000000000000000000000000 _"
b00000000000000000000000000000000 `"
0a"
b00000000000000000000000000000000 b"
0c"
b00000000000000000000000000000000 d"
b00000000000000000000000000000000 e"
0f"
b00000000000000000000000000000000 g"
0h"
b00000000000000000000000000000000 i"
b00000000000000000000000000000000 j"
0k"
b00000000000000000000000000000000 l"
0m"
b00000000000000000000000000000000 n"
b00000000000000000000000000000000 o"
0p"
b00000000000000000000000000000000 q"
0r"
b00000000000000000000000000000000 s"
b00000000000000000000000000000000 t"
0u"
b00000000000000000000000000000000 v"
0w"
b00000000000000000000000000000000 x"
b00000000000000000000000000000000 y"
0z"
b00000000000000000000000000000000 {"
0|"
b00000000000000000000000000000000 }"
b00000000000000000000000000000000 !#
0"#
b00000000000000000000000000000000 ##
0$#
b00000000000000000000000000000000 %#
b00000000000000000000000000000000 &#
0'#
b00000000000000000000000000000000 (#
0)#
b00000000000000000000000000000000 *#
b00000000000000000000000000000000 +#
0,#
b00000000000000000000000000000000 -#
0.#
b00000000000000000000000000000000 /#
b00000000000000000000000000000000 0#
01#
b00000000000000000000000000000000 2#
03#
b00000000000000000000000000000000 4#
b00000000000000000000000000000000 5#
06#
b00000000000000000000000000000000 7#
08#
b00000000000000000000000000000000 9#
b00000000000000000000000000000000 :#
0;#
b00000000000000000000000000000000 <#
0=#
b00000000000000000000000000000000 >#
b00000000000000000000000000000000 ?#
0@#
b00000000000000000000000000000000 A#
0B#
b00000000000000000000000000000000 C#
b00000000000000000000000000000000 D#
0E#
b00000000000000000000000000000000 F#
0G#
b00000000000000000000000000000000 H#
b00000000000000000000000000000000 I#
0J#
b00000000000000000000000000000000 K#
0L#
b00000000000000000000000000000000 M#
b00000000000000000000000000000000 N#
0O#
b00000000000000000000000000000000 P#
0Q#
b00000000000000000000000000000000 R#
b00000000000000000000000000000000 S#
0T#
b00000000000000000000000000000000 U#
0V#
b00000000000000000000000000000000 W#
b00000000000000000000000000000000 X#
0Y#
b00000000000000000000000000000000 Z#
0[#
b00000000000000000000000000000000 \#
b00000000000000000000000000000000 ]#
0^#
b00000000000000000000000000000000 _#
0`#
b00000000000000000000000000000000 a#
b00000000000000000000000000000000 b#
0c#
b00000000000000000000000000000000 d#
0e#
b00000000000000000000000000000000 f#
b00000000000000000000000000000000 g#
0h#
b00000000000000000000000000000000 i#
0j#
b00000000000000000000000000000000 k#
b00000000000000000000000000000000 l#
0m#
b00000000000000000000000000000000 n#
0o#
b00000000000000000000000000000000 p#
b00000000000000000000000000000000 q#
b0000000 r#
b00000000000000000000000000000001 s#
b000010 t#
b00000000000000000000000000000001 u#
0v#
b00 w#
b00 x#
b00000000000000000000000000000000 y#
b00000000000000000000000000000000 z#
b00000000000000000000000000000000 {#
b00000000000000000000000000000000 |#
b00000000000000000000000000000000 }#
b00000000000000000000000000000000 !$
b00000000000000000000000000000000 "$
b00000000000000000000000000000000 #$
b00000000000000000000000000000000 $$
b00000000000000000000000000000000 %$
0&$
b00000000000000000000000000000000 '$
b001 ($
b00000000000000000000000000000000 )$
0*$
b00000000000000000000000000000000 +$
0,$
b00000000000000000000000000000000 -$
b00000000000000000000000000000000 .$
0/$
b00000000000000000000000000000000 0$
01$
b00000000000000000000000000000000 2$
b00000000000000000000000000000000 3$
04$
b00000000000000000000000000000000 5$
06$
b00000000000000000000000000000000 7$
b00000000000000000000000000000000 8$
09$
b00000000000000000000000000000000 :$
b00000000000000000000000000000000 ;$
b00000 <$
b001 =$
b00000000000000000000000000000000 >$
b001 ?$
b00000000000000000000000000000000 @$
b000000000000000000000000000000000 A$
b000000000000000000000000000000000 B$
b000000000000000000000000000000000 C$
b000000000000000000000000000000000 D$
b000000000000000000000000000000000 E$
b000000000000000000000000000000000 F$
0G$
b00000000000000000000000000000000 H$
b00000000000000000000000000000000 I$
b00000000000000000000000000000000 J$
b00000000000000000000000000000000 K$
b00000000000000000000000000000000 L$
b00000000000000000000000000000000 M$
0N$
b00000000000000000000000000000000 O$
0P$
b00000000000000000000000000000000 Q$
b00000000000000000000000000000000 R$
0S$
b00000000000000000000000000000000 T$
0U$
b00000000000000000000000000000000 V$
b00000000000000000000000000000000 W$
0X$
b00000000000000000000000000000000 Y$
b00000000000000000000000000000000 Z$
b00000000000000000000000000000000 [$
0\$
b00000 ]$
b00000000000000000000000000000000 ^$
b00000000000000000000000000000000 _$
0`$
b00000000000000000000000000000000 a$
0b$
b00000000000000000000000000000000 c$
b00000000000000000000000000000000 d$
0e$
b00000000000000000000000000000000 f$
0g$
b00000000000000000000000000000000 h$
b00000000000000000000000000000000 i$
#5000000
0!
0"
#10000000
1!
1"
b001 $
#15000000
0!
0"
#20000000
1!
1"
1#
b000 $
1%
b00000000010100010000000100010011 &
15
b00000000010100010000000100010011 7
b00000000000000000000000000000100 8
b00000000000000000000000000001000 9
1;
b00000000000000000000000000001000 <
b00000000000000000000000000000100 >
b00000000000000000000000000000100 ?
1@
b00000000000000000000000000000100 A
b00000000010100010000000100010011 B
b00000000010100010000000100010011 C
b1 D
1F
b00000000010100010000000100010011 K
1b
b00000000010100010000000100010011 c
1g
14"
19"
1>"
1C"
1H"
1M"
1R"
1W"
1\"
1a"
1f"
1k"
1p"
1u"
1z"
1"#
1'#
1,#
11#
16#
1;#
1@#
1E#
1J#
1O#
1T#
1Y#
1^#
1c#
1h#
1m#
1v#
1*$
1,$
1/$
11$
14$
16$
19$
1G$
1N$
1P$
1S$
1U$
1X$
1`$
1b$
1e$
1g$
#25000000
0!
0"
#30000000
1!
1"
b001 $
#35000000
0!
0"
#40000000
1!
1"
0#
b000 $
0%
b00000000010000001000000010010011 &
05
b00000000010000001000000010010011 7
0;
0@
b00000000010000001000000010010011 B
b00000000010000001000000010010011 C
0F
b00000000010000001000000010010011 K
0b
b00000000010000001000000010010011 c
0g
04"
09"
0>"
0C"
0H"
0M"
0R"
0W"
0\"
0a"
0f"
0k"
0p"
0u"
0z"
0"#
0'#
0,#
01#
06#
0;#
0@#
0E#
0J#
0O#
0T#
0Y#
0^#
0c#
0h#
0m#
0v#
0*$
0,$
0/$
01$
04$
06$
09$
0G$
0N$
0P$
0S$
0U$
0X$
0`$
0b$
0e$
0g$
#45000000
0!
0"
#50000000
1!
1"
b001 $
#55000000
0!
0"
#60000000
1!
1"
1#
b000 $
1%
b00000000010100010000010010000001 '
b00000000000000000000000000000100 ,
15
b00000000000000000000000000001000 8
b00000000000000000000000000001100 9
1;
b00000000000000000000000000001100 <
b00000000000000000000000000001000 >
b00000000000000000000000000001000 ?
1@
b00000000000000000000000000001000 A
b10 D
1F
b00000000010100010000010010000001 L
b00000000000000000000000000000100 N
b00000000010000001000000010010011 Q
b00000000000000000000000000010000 R
b00000000000000000000000000000100 V
1W
1X
1\
b00010 ^
1`
b00001 a
1b
b00000000010000001000000010010011 e
b00000000010000001000000010010011 f
1g
b00001 i
b00100 j
14"
19"
1>"
1C"
1H"
1M"
1R"
1W"
1\"
1a"
1f"
1k"
1p"
1u"
1z"
1"#
1'#
1,#
11#
16#
1;#
1@#
1E#
1J#
1O#
1T#
1Y#
1^#
1c#
1h#
1m#
b0010011 r#
b00000000000000000000000000010000 s#
b00000000000000000000000000010000 u#
1v#
b00000000000000000000000000000100 z#
b00000000010100010000010010000001 |#
b00000000000000000000000000000100 #$
1*$
b00000000010100010000010010000001 +$
1,$
1/$
11$
14$
b00000000000000000000000000000100 5$
16$
19$
1G$
1N$
1P$
1S$
1U$
1X$
1`$
1b$
1e$
1g$
#65000000
0!
0"
#70000000
1!
1"
b001 $
#75000000
0!
0"
#80000000
1!
1"
0#
b000 $
0%
b00000000001100010000000100010011 &
05
b00000000001100010000000100010011 7
0;
0@
b00000000001100010000000100010011 B
b00000000001100010000000100010011 C
0F
b00000000001100010000000100010011 K
0b
b00000000001100010000000100010011 c
0g
04"
09"
0>"
0C"
0H"
0M"
0R"
0W"
0\"
0a"
0f"
0k"
0p"
0u"
0z"
0"#
0'#
0,#
01#
06#
0;#
0@#
0E#
0J#
0O#
0T#
0Y#
0^#
0c#
0h#
0m#
0v#
0*$
0,$
0/$
01$
04$
06$
09$
0G$
0N$
0P$
0S$
0U$
0X$
0`$
0b$
0e$
0g$
#85000000
0!
0"
#90000000
1!
1"
b001 $
#95000000
0!
0"
#100000000
1!
1"
1#
b000 $
1%
b00000000010100010000100001100010 '
b00000000010100010000010010000001 (
b00000000010100010000010010000001 )
b00000000000000000000000000000011 ,
15
b00000000000000000000000000001100 8
b00000000000000000000000000010000 9
1;
b00000000000000000000000000010000 <
b00000000000000000000000000001100 >
b00000000000000000000000000001100 ?
1@
b00000000000000000000000000001100 A
b11 D
1F
b00000000010100010000100001100010 L
b00000000000000000000000000000011 N
b00000000001100010000000100010011 Q
b00000000000000000000000000000011 V
b00010 a
1b
b00000000001100010000000100010011 e
b00000000001100010000000100010011 f
1g
b00010 i
b00011 j
14"
19"
1>"
1C"
1H"
1M"
1R"
1W"
1\"
1a"
1f"
1k"
1p"
1u"
1z"
1"#
1'#
1,#
11#
16#
1;#
1@#
1E#
1J#
1O#
1T#
1Y#
1^#
1c#
1h#
1m#
1v#
b00000000000000000000000000000011 z#
b00000000010100010000100001100010 |#
b00000000010100010000010010000001 }#
b00000000000000000000000000000011 #$
b00000000000000000000000000000100 %$
b00000000010100010000010010000001 '$
1*$
b00000000010100010000100001100010 +$
1,$
b00000000010100010000010010000001 -$
b00000000010100010000010010000001 .$
1/$
11$
14$
b00000000000000000000000000000011 5$
16$
b00000000000000000000000000000100 7$
b00000000000000000000000000000100 8$
19$
b00000000000000000000000000000100 ;$
b00010 <$
b000000000000000000000000000000100 D$
b000000000000000000000000000000100 F$
1G$
b00000000010100010000010010000001 I$
1N$
b00000000010100010000010010000001 O$
1P$
1S$
1U$
1X$
1`$
1b$
1e$
1g$
#105000000
0!
0"
#110000000
1!
1"
b001 $
#115000000
0!
0"
#120000000
1!
1"
0#
b000 $
0%
b00000000001000001000000010010011 &
b00000000000000000000000000000100 -
05
b00000000001000001000000010010011 7
0;
0@
b00000000001000001000000010010011 B
b00000000001000001000000010010011 C
0F
b00000000001000001000000010010011 K
0b
b00000000001000001000000010010011 c
0g
04"
09"
0>"
0C"
0H"
0M"
0R"
0W"
0\"
0a"
0f"
0k"
0p"
0u"
0z"
0"#
0'#
0,#
01#
06#
0;#
0@#
0E#
0J#
0O#
0T#
0Y#
0^#
0c#
0h#
0m#
0v#
b00000000000000000000000000000100 !$
b000 ($
b00000000000000000000000000000100 )$
0*$
0,$
0/$
01$
04$
06$
09$
b000 =$
b00000000000000000000000000000100 >$
b000 ?$
b00000000000000000000000000000100 @$
b000000000000000000000000000000100 A$
0G$
b00000000000000000000000000000100 H$
0N$
0P$
0S$
b00000000000000000000000000000100 T$
0U$
0X$
0`$
0b$
0e$
0g$
#125000000
0!
0"
#130000000
1!
1"
b001 $
#135000000
0!
0"
