results.vcd
$date
  Tue May 30 19:18:29 2017
$end
$version
  GHDL v0
$end
$timescale
  1 fs
$end
$var reg 1 ! l_clk_100 $end
$scope module fpga $end
$var reg 1 " i_clk $end
$var reg 1 # l_clk $end
$var reg 3 $ l_clk_cnt[2:0] $end
$scope module cpu $end
$var reg 1 % i_clk $end
$var reg 32 & l_instr_if[31:0] $end
$var reg 32 ' id_cs[31:0] $end
$var reg 32 ( id_cs_buf[31:0] $end
$var reg 32 ) ex_cs[31:0] $end
$var reg 32 * ma_cs[31:0] $end
$var reg 32 + l_a[31:0] $end
$var reg 32 , l_b[31:0] $end
$var reg 32 - l_c[31:0] $end
$var reg 32 . l_r[31:0] $end
$var reg 32 / l_rd[31:0] $end
$var reg 5 0 l_ra[4:0] $end
$var reg 1 1 l_rw $end
$var reg 1 2 c_stall $end
$scope module if_stage $end
$var reg 1 3 i_clk $end
$var reg 1 4 i_stall $end
$var reg 32 5 q_instr[31:0] $end
$var reg 32 6 l_pc[31:0] $end
$var reg 32 7 l_pc_4[31:0] $end
$var reg 1 8 l_wpc $end
$scope module pc $end
$var reg 1 9 i_clk $end
$var reg 32 : i_d[31:0] $end
$var reg 1 ; i_w $end
$var reg 32 < q_d[31:0] $end
$var reg 32 = l_content[31:0] $end
$upscope $end
$scope module instr_cache $end
$var reg 1 > i_clk $end
$var reg 32 ? i_adr[31:0] $end
$var reg 32 @ q_instr[31:0] $end
$comment mem is not handled $end
$var reg 32 A l_data[31:0] $end
$var integer 32 B l_iadr $end
$var reg 1 C l_f $end
$upscope $end
$upscope $end
$scope module id_stage $end
$var reg 1 D i_clk $end
$var reg 1 E i_stall $end
$var reg 1 F i_rw $end
$var reg 5 G i_ra[4:0] $end
$var reg 32 H i_rd[31:0] $end
$var reg 32 I i_instr[31:0] $end
$var reg 32 J q_cs[31:0] $end
$var reg 32 K q_a[31:0] $end
$var reg 32 L q_b[31:0] $end
$var reg 1 M l_wir $end
$var reg 32 N l_instr[31:0] $end
$var reg 32 O l_type[31:0] $end
$var reg 6 P l_format[5:0] $end
$var reg 32 Q l_rd1[31:0] $end
$var reg 32 R l_rd2[31:0] $end
$var reg 32 S l_imm[31:0] $end
$var reg 1 T l_immsel $end
$var reg 1 U l_opsel $end
$var reg 4 V l_func[3:0] $end
$var reg 5 W l_alu_func[4:0] $end
$var reg 5 X l_instr_func[4:0] $end
$var reg 1 Y id_re1 $end
$var reg 1 Z id_re2 $end
$var reg 5 [ ex_alufunc[4:0] $end
$var reg 1 \ ma_wbsel $end
$var reg 1 ] wb_rw $end
$var reg 5 ^ wb_ra[4:0] $end
$scope module ir $end
$var reg 1 _ i_clk $end
$var reg 32 ` i_d[31:0] $end
$var reg 1 a i_w $end
$var reg 32 b q_d[31:0] $end
$var reg 32 c l_content[31:0] $end
$upscope $end
$scope module rf $end
$var reg 1 d i_clk $end
$var reg 1 e i_we $end
$var reg 5 f i_rs1[4:0] $end
$var reg 5 g i_rs2[4:0] $end
$var reg 5 h i_wa[4:0] $end
$var reg 32 i i_wd[31:0] $end
$var reg 32 j q_rd1[31:0] $end
$var reg 32 k q_rd2[31:0] $end
$var reg 32 l l_write[31:0] $end
$var reg 32 m l_writes[31:0] $end
$var reg 32 n l_r0[31:0] $end
$var reg 32 o l_r1[31:0] $end
$var reg 32 p l_r2[31:0] $end
$var reg 32 q l_r3[31:0] $end
$var reg 32 r l_r4[31:0] $end
$var reg 32 s l_r5[31:0] $end
$var reg 32 t l_r6[31:0] $end
$var reg 32 u l_r7[31:0] $end
$var reg 32 v l_r8[31:0] $end
$var reg 32 w l_r9[31:0] $end
$var reg 32 x l_r10[31:0] $end
$var reg 32 y l_r11[31:0] $end
$var reg 32 z l_r12[31:0] $end
$var reg 32 { l_r13[31:0] $end
$var reg 32 | l_r14[31:0] $end
$var reg 32 } l_r15[31:0] $end
$var reg 32 !" l_r16[31:0] $end
$var reg 32 "" l_r17[31:0] $end
$var reg 32 #" l_r18[31:0] $end
$var reg 32 $" l_r19[31:0] $end
$var reg 32 %" l_r20[31:0] $end
$var reg 32 &" l_r21[31:0] $end
$var reg 32 '" l_r22[31:0] $end
$var reg 32 (" l_r23[31:0] $end
$var reg 32 )" l_r24[31:0] $end
$var reg 32 *" l_r25[31:0] $end
$var reg 32 +" l_r26[31:0] $end
$var reg 32 ," l_r27[31:0] $end
$var reg 32 -" l_r28[31:0] $end
$var reg 32 ." l_r29[31:0] $end
$var reg 32 /" l_r30[31:0] $end
$var reg 32 0" l_r31[31:0] $end
$scope module r1 $end
$var reg 1 1" i_clk $end
$var reg 32 2" i_d[31:0] $end
$var reg 1 3" i_w $end
$var reg 32 4" q_d[31:0] $end
$var reg 32 5" l_content[31:0] $end
$upscope $end
$scope module r2 $end
$var reg 1 6" i_clk $end
$var reg 32 7" i_d[31:0] $end
$var reg 1 8" i_w $end
$var reg 32 9" q_d[31:0] $end
$var reg 32 :" l_content[31:0] $end
$upscope $end
$scope module r3 $end
$var reg 1 ;" i_clk $end
$var reg 32 <" i_d[31:0] $end
$var reg 1 =" i_w $end
$var reg 32 >" q_d[31:0] $end
$var reg 32 ?" l_content[31:0] $end
$upscope $end
$scope module r4 $end
$var reg 1 @" i_clk $end
$var reg 32 A" i_d[31:0] $end
$var reg 1 B" i_w $end
$var reg 32 C" q_d[31:0] $end
$var reg 32 D" l_content[31:0] $end
$upscope $end
$scope module r5 $end
$var reg 1 E" i_clk $end
$var reg 32 F" i_d[31:0] $end
$var reg 1 G" i_w $end
$var reg 32 H" q_d[31:0] $end
$var reg 32 I" l_content[31:0] $end
$upscope $end
$scope module r6 $end
$var reg 1 J" i_clk $end
$var reg 32 K" i_d[31:0] $end
$var reg 1 L" i_w $end
$var reg 32 M" q_d[31:0] $end
$var reg 32 N" l_content[31:0] $end
$upscope $end
$scope module r7 $end
$var reg 1 O" i_clk $end
$var reg 32 P" i_d[31:0] $end
$var reg 1 Q" i_w $end
$var reg 32 R" q_d[31:0] $end
$var reg 32 S" l_content[31:0] $end
$upscope $end
$scope module r8 $end
$var reg 1 T" i_clk $end
$var reg 32 U" i_d[31:0] $end
$var reg 1 V" i_w $end
$var reg 32 W" q_d[31:0] $end
$var reg 32 X" l_content[31:0] $end
$upscope $end
$scope module r9 $end
$var reg 1 Y" i_clk $end
$var reg 32 Z" i_d[31:0] $end
$var reg 1 [" i_w $end
$var reg 32 \" q_d[31:0] $end
$var reg 32 ]" l_content[31:0] $end
$upscope $end
$scope module r10 $end
$var reg 1 ^" i_clk $end
$var reg 32 _" i_d[31:0] $end
$var reg 1 `" i_w $end
$var reg 32 a" q_d[31:0] $end
$var reg 32 b" l_content[31:0] $end
$upscope $end
$scope module r11 $end
$var reg 1 c" i_clk $end
$var reg 32 d" i_d[31:0] $end
$var reg 1 e" i_w $end
$var reg 32 f" q_d[31:0] $end
$var reg 32 g" l_content[31:0] $end
$upscope $end
$scope module r12 $end
$var reg 1 h" i_clk $end
$var reg 32 i" i_d[31:0] $end
$var reg 1 j" i_w $end
$var reg 32 k" q_d[31:0] $end
$var reg 32 l" l_content[31:0] $end
$upscope $end
$scope module r13 $end
$var reg 1 m" i_clk $end
$var reg 32 n" i_d[31:0] $end
$var reg 1 o" i_w $end
$var reg 32 p" q_d[31:0] $end
$var reg 32 q" l_content[31:0] $end
$upscope $end
$scope module r14 $end
$var reg 1 r" i_clk $end
$var reg 32 s" i_d[31:0] $end
$var reg 1 t" i_w $end
$var reg 32 u" q_d[31:0] $end
$var reg 32 v" l_content[31:0] $end
$upscope $end
$scope module r15 $end
$var reg 1 w" i_clk $end
$var reg 32 x" i_d[31:0] $end
$var reg 1 y" i_w $end
$var reg 32 z" q_d[31:0] $end
$var reg 32 {" l_content[31:0] $end
$upscope $end
$scope module r16 $end
$var reg 1 |" i_clk $end
$var reg 32 }" i_d[31:0] $end
$var reg 1 !# i_w $end
$var reg 32 "# q_d[31:0] $end
$var reg 32 ## l_content[31:0] $end
$upscope $end
$scope module r17 $end
$var reg 1 $# i_clk $end
$var reg 32 %# i_d[31:0] $end
$var reg 1 &# i_w $end
$var reg 32 '# q_d[31:0] $end
$var reg 32 (# l_content[31:0] $end
$upscope $end
$scope module r18 $end
$var reg 1 )# i_clk $end
$var reg 32 *# i_d[31:0] $end
$var reg 1 +# i_w $end
$var reg 32 ,# q_d[31:0] $end
$var reg 32 -# l_content[31:0] $end
$upscope $end
$scope module r19 $end
$var reg 1 .# i_clk $end
$var reg 32 /# i_d[31:0] $end
$var reg 1 0# i_w $end
$var reg 32 1# q_d[31:0] $end
$var reg 32 2# l_content[31:0] $end
$upscope $end
$scope module r20 $end
$var reg 1 3# i_clk $end
$var reg 32 4# i_d[31:0] $end
$var reg 1 5# i_w $end
$var reg 32 6# q_d[31:0] $end
$var reg 32 7# l_content[31:0] $end
$upscope $end
$scope module r21 $end
$var reg 1 8# i_clk $end
$var reg 32 9# i_d[31:0] $end
$var reg 1 :# i_w $end
$var reg 32 ;# q_d[31:0] $end
$var reg 32 <# l_content[31:0] $end
$upscope $end
$scope module r22 $end
$var reg 1 =# i_clk $end
$var reg 32 ># i_d[31:0] $end
$var reg 1 ?# i_w $end
$var reg 32 @# q_d[31:0] $end
$var reg 32 A# l_content[31:0] $end
$upscope $end
$scope module r23 $end
$var reg 1 B# i_clk $end
$var reg 32 C# i_d[31:0] $end
$var reg 1 D# i_w $end
$var reg 32 E# q_d[31:0] $end
$var reg 32 F# l_content[31:0] $end
$upscope $end
$scope module r24 $end
$var reg 1 G# i_clk $end
$var reg 32 H# i_d[31:0] $end
$var reg 1 I# i_w $end
$var reg 32 J# q_d[31:0] $end
$var reg 32 K# l_content[31:0] $end
$upscope $end
$scope module r25 $end
$var reg 1 L# i_clk $end
$var reg 32 M# i_d[31:0] $end
$var reg 1 N# i_w $end
$var reg 32 O# q_d[31:0] $end
$var reg 32 P# l_content[31:0] $end
$upscope $end
$scope module r26 $end
$var reg 1 Q# i_clk $end
$var reg 32 R# i_d[31:0] $end
$var reg 1 S# i_w $end
$var reg 32 T# q_d[31:0] $end
$var reg 32 U# l_content[31:0] $end
$upscope $end
$scope module r27 $end
$var reg 1 V# i_clk $end
$var reg 32 W# i_d[31:0] $end
$var reg 1 X# i_w $end
$var reg 32 Y# q_d[31:0] $end
$var reg 32 Z# l_content[31:0] $end
$upscope $end
$scope module r28 $end
$var reg 1 [# i_clk $end
$var reg 32 \# i_d[31:0] $end
$var reg 1 ]# i_w $end
$var reg 32 ^# q_d[31:0] $end
$var reg 32 _# l_content[31:0] $end
$upscope $end
$scope module r29 $end
$var reg 1 `# i_clk $end
$var reg 32 a# i_d[31:0] $end
$var reg 1 b# i_w $end
$var reg 32 c# q_d[31:0] $end
$var reg 32 d# l_content[31:0] $end
$upscope $end
$scope module r30 $end
$var reg 1 e# i_clk $end
$var reg 32 f# i_d[31:0] $end
$var reg 1 g# i_w $end
$var reg 32 h# q_d[31:0] $end
$var reg 32 i# l_content[31:0] $end
$upscope $end
$scope module r31 $end
$var reg 1 j# i_clk $end
$var reg 32 k# i_d[31:0] $end
$var reg 1 l# i_w $end
$var reg 32 m# q_d[31:0] $end
$var reg 32 n# l_content[31:0] $end
$upscope $end
$upscope $end
$scope module type_decoder $end
$var reg 7 o# i_instr[6:0] $end
$var reg 32 p# q_type[31:0] $end
$var reg 6 q# q_format[5:0] $end
$var reg 32 r# l_type[31:0] $end
$upscope $end
$upscope $end
$scope module ex_stage $end
$var reg 1 s# i_clk $end
$var reg 32 t# i_a[31:0] $end
$var reg 32 u# i_b[31:0] $end
$var reg 32 v# i_cs[31:0] $end
$var reg 32 w# q_cs[31:0] $end
$var reg 32 x# q_c[31:0] $end
$var reg 32 y# l_a[31:0] $end
$var reg 32 z# l_b[31:0] $end
$var reg 32 {# l_type[31:0] $end
$var reg 32 |# l_cs[31:0] $end
$var reg 3 }# l_cc[2:0] $end
$var reg 32 !$ l_o[31:0] $end
$scope module ir $end
$var reg 1 "$ i_clk $end
$var reg 32 #$ i_d[31:0] $end
$var reg 1 $$ i_w $end
$var reg 32 %$ q_d[31:0] $end
$var reg 32 &$ l_content[31:0] $end
$upscope $end
$scope module a $end
$var reg 1 '$ i_clk $end
$var reg 32 ($ i_d[31:0] $end
$var reg 1 )$ i_w $end
$var reg 32 *$ q_d[31:0] $end
$var reg 32 +$ l_content[31:0] $end
$upscope $end
$scope module b $end
$var reg 1 ,$ i_clk $end
$var reg 32 -$ i_d[31:0] $end
$var reg 1 .$ i_w $end
$var reg 32 /$ q_d[31:0] $end
$var reg 32 0$ l_content[31:0] $end
$upscope $end
$scope module al $end
$var reg 1 1$ i_clk $end
$var reg 32 2$ i_a[31:0] $end
$var reg 32 3$ i_b[31:0] $end
$var reg 5 4$ i_fc[4:0] $end
$var reg 3 5$ q_cc[2:0] $end
$var reg 32 6$ q_o[31:0] $end
$var reg 3 7$ l_cc[2:0] $end
$var reg 32 8$ l_out[31:0] $end
$var reg 33 9$ l_alu[32:0] $end
$var reg 33 :$ l_shift[32:0] $end
$var reg 33 ;$ u_a[32:0] $end
$var reg 33 <$ u_b[32:0] $end
$var reg 33 =$ s_a[32:0] $end
$var reg 33 >$ s_b[32:0] $end
$upscope $end
$upscope $end
$scope module ma_stage $end
$var reg 1 ?$ i_clk $end
$var reg 32 @$ i_c[31:0] $end
$var reg 32 A$ i_cs[31:0] $end
$var reg 32 B$ q_cs[31:0] $end
$var reg 32 C$ q_r[31:0] $end
$var reg 32 D$ l_cs[31:0] $end
$var reg 32 E$ l_c[31:0] $end
$scope module ir $end
$var reg 1 F$ i_clk $end
$var reg 32 G$ i_d[31:0] $end
$var reg 1 H$ i_w $end
$var reg 32 I$ q_d[31:0] $end
$var reg 32 J$ l_content[31:0] $end
$upscope $end
$scope module c $end
$var reg 1 K$ i_clk $end
$var reg 32 L$ i_d[31:0] $end
$var reg 1 M$ i_w $end
$var reg 32 N$ q_d[31:0] $end
$var reg 32 O$ l_content[31:0] $end
$upscope $end
$upscope $end
$scope module wb_stage $end
$var reg 1 P$ i_clk $end
$var reg 32 Q$ i_r[31:0] $end
$var reg 32 R$ i_cs[31:0] $end
$var reg 32 S$ q_rd[31:0] $end
$var reg 1 T$ q_rw $end
$var reg 5 U$ q_ra[4:0] $end
$var reg 32 V$ l_cs[31:0] $end
$var reg 32 W$ l_r[31:0] $end
$scope module ir $end
$var reg 1 X$ i_clk $end
$var reg 32 Y$ i_d[31:0] $end
$var reg 1 Z$ i_w $end
$var reg 32 [$ q_d[31:0] $end
$var reg 32 \$ l_content[31:0] $end
$upscope $end
$scope module r $end
$var reg 1 ]$ i_clk $end
$var reg 32 ^$ i_d[31:0] $end
$var reg 1 _$ i_w $end
$var reg 32 `$ q_d[31:0] $end
$var reg 32 a$ l_content[31:0] $end
$upscope $end
$upscope $end
$upscope $end
$upscope $end
$enddefinitions $end
#0
1!
1"
0#
b000 $
0%
b00000000000000000000000000000000 &
b00000000000000000000000000000000 '
b00000000000000000000000000000000 (
b00000000000000000000000000000000 )
b00000000000000000000000000000000 *
b00000000000000000000000000000000 +
b00000000000000000000000000000000 ,
b00000000000000000000000000000000 -
b00000000000000000000000000000000 .
b00000000000000000000000000000000 /
b00000 0
01
02
03
04
b00000000000000000000000000000000 5
b00000000000000000000000000000000 6
b00000000000000000000000000000100 7
18
09
b00000000000000000000000000000100 :
1;
b00000000000000000000000000000000 <
b00000000000000000000000000000000 =
0>
b00000000000000000000000000000000 ?
b00000000000000000000000000000000 @
b00000000000000000000000000000000 A
b0 B
1C
0D
0E
0F
b00000 G
b00000000000000000000000000000000 H
b00000000000000000000000000000000 I
b00000000000000000000000000000000 J
b00000000000000000000000000000000 K
b00000000000000000000000000000000 L
1M
b00000000000000000000000000000000 N
b00000000000000000000000000000001 O
b000010 P
b00000000000000000000000000000000 Q
b00000000000000000000000000000000 R
b00000000000000000000000000000000 S
0T
0U
b0000 V
b00010 W
b00000 X
0Y
0Z
b00000 [
0\
0]
b00000 ^
0_
b00000000000000000000000000000000 `
1a
b00000000000000000000000000000000 b
b00000000000000000000000000000000 c
0d
0e
b00000 f
b00000 g
b00000 h
b00000000000000000000000000000000 i
b00000000000000000000000000000000 j
b00000000000000000000000000000000 k
b00000000000000000000000000000000 l
b00000000000000000000000000000001 m
b00000000000000000000000000000000 n
b00000000000000000000000000000000 o
b00000000000000000000000000000000 p
b00000000000000000000000000000000 q
b00000000000000000000000000000000 r
b00000000000000000000000000000000 s
b00000000000000000000000000000000 t
b00000000000000000000000000000000 u
b00000000000000000000000000000000 v
b00000000000000000000000000000000 w
b00000000000000000000000000000000 x
b00000000000000000000000000000000 y
b00000000000000000000000000000000 z
b00000000000000000000000000000000 {
b00000000000000000000000000000000 |
b00000000000000000000000000000000 }
b00000000000000000000000000000000 !"
b00000000000000000000000000000000 ""
b00000000000000000000000000000000 #"
b00000000000000000000000000000000 $"
b00000000000000000000000000000000 %"
b00000000000000000000000000000000 &"
b00000000000000000000000000000000 '"
b00000000000000000000000000000000 ("
b00000000000000000000000000000000 )"
b00000000000000000000000000000000 *"
b00000000000000000000000000000000 +"
b00000000000000000000000000000000 ,"
b00000000000000000000000000000000 -"
b00000000000000000000000000000000 ."
b00000000000000000000000000000000 /"
b00000000000000000000000000000000 0"
01"
b00000000000000000000000000000000 2"
03"
b00000000000000000000000000000000 4"
b00000000000000000000000000000000 5"
06"
b00000000000000000000000000000000 7"
08"
b00000000000000000000000000000000 9"
b00000000000000000000000000000000 :"
0;"
b00000000000000000000000000000000 <"
0="
b00000000000000000000000000000000 >"
b00000000000000000000000000000000 ?"
0@"
b00000000000000000000000000000000 A"
0B"
b00000000000000000000000000000000 C"
b00000000000000000000000000000000 D"
0E"
b00000000000000000000000000000000 F"
0G"
b00000000000000000000000000000000 H"
b00000000000000000000000000000000 I"
0J"
b00000000000000000000000000000000 K"
0L"
b00000000000000000000000000000000 M"
b00000000000000000000000000000000 N"
0O"
b00000000000000000000000000000000 P"
0Q"
b00000000000000000000000000000000 R"
b00000000000000000000000000000000 S"
0T"
b00000000000000000000000000000000 U"
0V"
b00000000000000000000000000000000 W"
b00000000000000000000000000000000 X"
0Y"
b00000000000000000000000000000000 Z"
0["
b00000000000000000000000000000000 \"
b00000000000000000000000000000000 ]"
0^"
b00000000000000000000000000000000 _"
0`"
b00000000000000000000000000000000 a"
b00000000000000000000000000000000 b"
0c"
b00000000000000000000000000000000 d"
0e"
b00000000000000000000000000000000 f"
b00000000000000000000000000000000 g"
0h"
b00000000000000000000000000000000 i"
0j"
b00000000000000000000000000000000 k"
b00000000000000000000000000000000 l"
0m"
b00000000000000000000000000000000 n"
0o"
b00000000000000000000000000000000 p"
b00000000000000000000000000000000 q"
0r"
b00000000000000000000000000000000 s"
0t"
b00000000000000000000000000000000 u"
b00000000000000000000000000000000 v"
0w"
b00000000000000000000000000000000 x"
0y"
b00000000000000000000000000000000 z"
b00000000000000000000000000000000 {"
0|"
b00000000000000000000000000000000 }"
0!#
b00000000000000000000000000000000 "#
b00000000000000000000000000000000 ##
0$#
b00000000000000000000000000000000 %#
0&#
b00000000000000000000000000000000 '#
b00000000000000000000000000000000 (#
0)#
b00000000000000000000000000000000 *#
0+#
b00000000000000000000000000000000 ,#
b00000000000000000000000000000000 -#
0.#
b00000000000000000000000000000000 /#
00#
b00000000000000000000000000000000 1#
b00000000000000000000000000000000 2#
03#
b00000000000000000000000000000000 4#
05#
b00000000000000000000000000000000 6#
b00000000000000000000000000000000 7#
08#
b00000000000000000000000000000000 9#
0:#
b00000000000000000000000000000000 ;#
b00000000000000000000000000000000 <#
0=#
b00000000000000000000000000000000 >#
0?#
b00000000000000000000000000000000 @#
b00000000000000000000000000000000 A#
0B#
b00000000000000000000000000000000 C#
0D#
b00000000000000000000000000000000 E#
b00000000000000000000000000000000 F#
0G#
b00000000000000000000000000000000 H#
0I#
b00000000000000000000000000000000 J#
b00000000000000000000000000000000 K#
0L#
b00000000000000000000000000000000 M#
0N#
b00000000000000000000000000000000 O#
b00000000000000000000000000000000 P#
0Q#
b00000000000000000000000000000000 R#
0S#
b00000000000000000000000000000000 T#
b00000000000000000000000000000000 U#
0V#
b00000000000000000000000000000000 W#
0X#
b00000000000000000000000000000000 Y#
b00000000000000000000000000000000 Z#
0[#
b00000000000000000000000000000000 \#
0]#
b00000000000000000000000000000000 ^#
b00000000000000000000000000000000 _#
0`#
b00000000000000000000000000000000 a#
0b#
b00000000000000000000000000000000 c#
b00000000000000000000000000000000 d#
0e#
b00000000000000000000000000000000 f#
0g#
b00000000000000000000000000000000 h#
b00000000000000000000000000000000 i#
0j#
b00000000000000000000000000000000 k#
0l#
b00000000000000000000000000000000 m#
b00000000000000000000000000000000 n#
b0000000 o#
b00000000000000000000000000000001 p#
b000010 q#
b00000000000000000000000000000001 r#
0s#
b00000000000000000000000000000000 t#
b00000000000000000000000000000000 u#
b00000000000000000000000000000000 v#
b00000000000000000000000000000000 w#
b00000000000000000000000000000000 x#
b00000000000000000000000000000000 y#
b00000000000000000000000000000000 z#
b00000000000000000000000000000000 {#
b00000000000000000000000000000000 |#
b001 }#
b00000000000000000000000000000000 !$
0"$
b00000000000000000000000000000000 #$
0$$
b00000000000000000000000000000000 %$
b00000000000000000000000000000000 &$
0'$
b00000000000000000000000000000000 ($
0)$
b00000000000000000000000000000000 *$
b00000000000000000000000000000000 +$
0,$
b00000000000000000000000000000000 -$
0.$
b00000000000000000000000000000000 /$
b00000000000000000000000000000000 0$
01$
b00000000000000000000000000000000 2$
b00000000000000000000000000000000 3$
b00000 4$
b001 5$
b00000000000000000000000000000000 6$
b001 7$
b00000000000000000000000000000000 8$
b000000000000000000000000000000000 9$
b000000000000000000000000000000000 :$
b000000000000000000000000000000000 ;$
b000000000000000000000000000000000 <$
b000000000000000000000000000000000 =$
b000000000000000000000000000000000 >$
0?$
b00000000000000000000000000000000 @$
b00000000000000000000000000000000 A$
b00000000000000000000000000000000 B$
b00000000000000000000000000000000 C$
b00000000000000000000000000000000 D$
b00000000000000000000000000000000 E$
0F$
b00000000000000000000000000000000 G$
0H$
b00000000000000000000000000000000 I$
b00000000000000000000000000000000 J$
0K$
b00000000000000000000000000000000 L$
0M$
b00000000000000000000000000000000 N$
b00000000000000000000000000000000 O$
0P$
b00000000000000000000000000000000 Q$
b00000000000000000000000000000000 R$
b00000000000000000000000000000000 S$
0T$
b00000 U$
b00000000000000000000000000000000 V$
b00000000000000000000000000000000 W$
0X$
b00000000000000000000000000000000 Y$
0Z$
b00000000000000000000000000000000 [$
b00000000000000000000000000000000 \$
0]$
b00000000000000000000000000000000 ^$
0_$
b00000000000000000000000000000000 `$
b00000000000000000000000000000000 a$
#5000000
0!
0"
#10000000
1!
1"
b001 $
#15000000
0!
0"
#20000000
1!
1"
1#
b000 $
1%
b00000000010100010000000100010011 &
13
b00000000010100010000000100010011 5
b00000000000000000000000000000100 6
b00000000000000000000000000001000 7
19
b00000000000000000000000000001000 :
b00000000000000000000000000000100 <
b00000000000000000000000000000100 =
1>
b00000000000000000000000000000100 ?
b00000000010100010000000100010011 @
b00000000010100010000000100010011 A
b1 B
1D
b00000000010100010000000100010011 I
1_
b00000000010100010000000100010011 `
1d
11"
16"
1;"
1@"
1E"
1J"
1O"
1T"
1Y"
1^"
1c"
1h"
1m"
1r"
1w"
1|"
1$#
1)#
1.#
13#
18#
1=#
1B#
1G#
1L#
1Q#
1V#
1[#
1`#
1e#
1j#
1s#
1"$
1$$
1'$
1)$
1,$
1.$
11$
1?$
1F$
1H$
1K$
1M$
1P$
1X$
1Z$
1]$
1_$
#25000000
0!
0"
#30000000
1!
1"
b001 $
#35000000
0!
0"
#40000000
1!
1"
0#
b000 $
0%
b00000000010100001000000010010011 &
03
b00000000010100001000000010010011 5
09
0>
b00000000010100001000000010010011 @
b00000000010100001000000010010011 A
0D
b00000000010100001000000010010011 I
0_
b00000000010100001000000010010011 `
0d
01"
06"
0;"
0@"
0E"
0J"
0O"
0T"
0Y"
0^"
0c"
0h"
0m"
0r"
0w"
0|"
0$#
0)#
0.#
03#
08#
0=#
0B#
0G#
0L#
0Q#
0V#
0[#
0`#
0e#
0j#
0s#
0"$
0$$
0'$
0)$
0,$
0.$
01$
0?$
0F$
0H$
0K$
0M$
0P$
0X$
0Z$
0]$
0_$
#45000000
0!
0"
#50000000
1!
1"
b001 $
#55000000
0!
0"
#60000000
1!
1"
1#
b000 $
1%
b00000000010100010000010010100001 '
b00000000000000000000000000000101 ,
13
b00000000000000000000000000001000 6
b00000000000000000000000000001100 7
19
b00000000000000000000000000001100 :
b00000000000000000000000000001000 <
b00000000000000000000000000001000 =
1>
b00000000000000000000000000001000 ?
b10 B
1D
b00000000010100010000010010100001 J
b00000000000000000000000000000101 L
b00000000010100001000000010010011 N
b00000000000000000000000000010000 O
b00000000000000000000000000000101 S
1T
1U
1Y
b00010 [
1]
b00001 ^
1_
b00000000010100001000000010010011 b
b00000000010100001000000010010011 c
1d
b00001 f
b00101 g
11"
16"
1;"
1@"
1E"
1J"
1O"
1T"
1Y"
1^"
1c"
1h"
1m"
1r"
1w"
1|"
1$#
1)#
1.#
13#
18#
1=#
1B#
1G#
1L#
1Q#
1V#
1[#
1`#
1e#
1j#
b0010011 o#
b00000000000000000000000000010000 p#
b00000000000000000000000000010000 r#
1s#
b00000000000000000000000000000101 u#
b00000000010100010000010010100001 v#
1"$
b00000000010100010000010010100001 #$
1$$
1'$
1)$
1,$
b00000000000000000000000000000101 -$
1.$
11$
1?$
1F$
1H$
1K$
1M$
1P$
1X$
1Z$
1]$
1_$
#65000000
0!
0"
#70000000
1!
1"
b001 $
#75000000
0!
0"
#80000000
1!
1"
0#
b000 $
0%
b00000000010100010000000100010011 &
03
b00000000010100010000000100010011 5
09
0>
b00000000010100010000000100010011 @
b00000000010100010000000100010011 A
0D
b00000000010100010000000100010011 I
0_
b00000000010100010000000100010011 `
0d
01"
06"
0;"
0@"
0E"
0J"
0O"
0T"
0Y"
0^"
0c"
0h"
0m"
0r"
0w"
0|"
0$#
0)#
0.#
03#
08#
0=#
0B#
0G#
0L#
0Q#
0V#
0[#
0`#
0e#
0j#
0s#
0"$
0$$
0'$
0)$
0,$
0.$
01$
0?$
0F$
0H$
0K$
0M$
0P$
0X$
0Z$
0]$
0_$
#85000000
0!
0"
#90000000
1!
1"
b001 $
#95000000
0!
0"
#100000000
1!
1"
1#
b000 $
1%
b00000000000000000000000000000000 '
b00000000010100010000010010100001 (
b00000000010100010000010010100001 )
12
13
14
b00000000000000000000000000001100 6
b00000000000000000000000000010000 7
08
19
b00000000000000000000000000010000 :
0;
b00000000000000000000000000001100 <
b00000000000000000000000000001100 =
1>
b00000000000000000000000000001100 ?
b11 B
1D
1E
b00000000000000000000000000000000 J
0M
b00000000010100010000000100010011 N
b00010 ^
1_
0a
b00000000010100010000000100010011 b
b00000000010100010000000100010011 c
1d
b00010 f
11"
16"
1;"
1@"
1E"
1J"
1O"
1T"
1Y"
1^"
1c"
1h"
1m"
1r"
1w"
1|"
1$#
1)#
1.#
13#
18#
1=#
1B#
1G#
1L#
1Q#
1V#
1[#
1`#
1e#
1j#
1s#
b00000000000000000000000000000000 v#
b00000000010100010000010010100001 w#
b00000000000000000000000000000101 z#
b00000000010100010000010010100001 |#
1"$
b00000000000000000000000000000000 #$
1$$
b00000000010100010000010010100001 %$
b00000000010100010000010010100001 &$
1'$
1)$
1,$
1.$
b00000000000000000000000000000101 /$
b00000000000000000000000000000101 0$
11$
b00000000000000000000000000000101 3$
b00010 4$
b000000000000000000000000000000101 <$
b000000000000000000000000000000101 >$
1?$
b00000000010100010000010010100001 A$
1F$
b00000000010100010000010010100001 G$
1H$
1K$
1M$
1P$
1X$
1Z$
1]$
1_$
#105000000
0!
0"
#110000000
1!
1"
b001 $
#115000000
0!
0"
#120000000
1!
1"
0#
b000 $
0%
b00000000010100001000000010010011 &
b00000000000000000000000000000101 -
03
b00000000010100001000000010010011 5
09
0>
b00000000010100001000000010010011 @
b00000000010100001000000010010011 A
0D
b00000000010100001000000010010011 I
0_
b00000000010100001000000010010011 `
0d
01"
06"
0;"
0@"
0E"
0J"
0O"
0T"
0Y"
0^"
0c"
0h"
0m"
0r"
0w"
0|"
0$#
0)#
0.#
03#
08#
0=#
0B#
0G#
0L#
0Q#
0V#
0[#
0`#
0e#
0j#
0s#
b00000000000000000000000000000101 x#
b000 }#
b00000000000000000000000000000101 !$
0"$
0$$
0'$
0)$
0,$
0.$
01$
b000 5$
b00000000000000000000000000000101 6$
b000 7$
b00000000000000000000000000000101 8$
b000000000000000000000000000000101 9$
0?$
b00000000000000000000000000000101 @$
0F$
0H$
0K$
b00000000000000000000000000000101 L$
0M$
0P$
0X$
0Z$
0]$
0_$
#125000000
0!
0"
#130000000
1!
1"
b001 $
#135000000
0!
0"
